<?xml version="1.0" encoding="utf-8"?>
<!-- Generator: Adobe Illustrator 16.0.0, SVG Export Plug-In . SVG Version: 6.00 Build 0)  -->
<!DOCTYPE svg PUBLIC "-//W3C//DTD SVG 1.1//EN" "http://www.w3.org/Graphics/SVG/1.1/DTD/svg11.dtd">
<svg version="1.1" id="Layer_1" xmlns="http://www.w3.org/2000/svg" xmlns:xlink="http://www.w3.org/1999/xlink" x="0px" y="0px"
	 width="1260px" height="898px" viewBox="0 0 1260 898" enable-background="new 0 0 1260 898" xml:space="preserve">
<title>Header - Background</title>
<desc>Created with Sketch.</desc>
<g id="Header" transform="translate(109.000000, -13.000000)">
	
		<g id="Header---Background" transform="translate(790.500000, 455.500000) scale(-1, 1) translate(-790.500000, -455.500000) translate(69.000000, 0.000000)">
		<g id="Path-35">
			<path id="path-1_1_" fill="#2485B5" d="M236.603,852.366c163.593,19.313,136.426-59.409,249.393-96.42
				c112.967-37.012,197.55,177.783,321.677,152.383c124.127-25.399,54.024-173.521,138.396-261.73s239.248-11.394,296.92-89.635
				c57.673-78.241-104.235-233.317-26.451-343.514c77.785-110.196,194.987-33.372,290.385-67.73
				c95.396-34.359,112.59-145.169,112.59-145.169L295.428,23.253C295.428,23.253,73.01,833.054,236.603,852.366z"/>
		</g>
		<defs>
			<filter id="Adobe_OpacityMaskFilter" filterUnits="userSpaceOnUse">
				<feColorMatrix  type="matrix" values="1 0 0 0 0  0 1 0 0 0  0 0 1 0 0  0 0 0 1 0"/>
			</filter>
		</defs>
		<mask maskUnits="userSpaceOnUse" id="mask-2">
			<g filter="url(#Adobe_OpacityMaskFilter)">
				<path id="path-1" fill="#FFFFFF" d="M236.603,852.366c163.593,19.313,136.426-59.409,249.393-96.42
					c112.967-37.012,197.55,177.783,321.677,152.383c124.127-25.399,54.024-173.521,138.396-261.73s239.248-11.394,296.92-89.635
					c57.673-78.241-104.235-233.317-26.451-343.514c77.785-110.196,194.987-33.372,290.385-67.73
					c95.396-34.359,112.59-145.169,112.59-145.169L295.428,23.253C295.428,23.253,73.01,833.054,236.603,852.366z"/>
			</g>
		</mask>
		<path id="Path-35-Copy" mask="url(#mask-2)" fill="#1E88E5" d="M214.995,820.13c163.593,19.312,198.783-70.304,311.749-107.314
			c112.967-37.012,163.565,130.84,290.496,91.308c126.93-39.533,80.042-194.818,164.413-283.028s251.788,56.61,309.46-21.631
			s-112.353-238.361-48.601-376.274c63.753-137.913,315.861-115.979,373.33-143.639C1717.758-69.502,275.428,43.253,275.428,43.253
			S51.402,800.817,214.995,820.13z"/>
	</g>
</g>
</svg>
