<?xml version="1.0" encoding="utf-8"?>
<!-- Generator: Adobe Illustrator 21.0.0, SVG Export Plug-In . SVG Version: 6.00 Build 0)  -->
<svg version="1.1" xmlns="http://www.w3.org/2000/svg" xmlns:xlink="http://www.w3.org/1999/xlink" x="0px" y="0px"
	 viewBox="0 0 443.3 273.9" style="enable-background:new 0 0 443.3 273.9;" xml:space="preserve">
<style type="text/css">
	.st0{fill:#55ADD3;}
	.st1{fill:#E2E2E2;}
	.st2{fill:#FFFFFF;}
	.st3{opacity:0.2;fill:#FFFFFF;}
	.st4{opacity:0.2;}
	.st5{fill:#7F1416;}
	.st6{fill:#F7B78F;}
	.st7{fill:#623412;}
	.st8{fill:#A61E22;}
	.st9{fill:#E8AC86;}
	.st10{fill:#262626;}
	.st11{fill:#7C4739;}
	.st12{opacity:0.41;}
	.st13{fill:#0C0C0C;}
	.st14{fill:#475677;}
	.st15{fill:#3C4C66;}
	.st16{opacity:0.5;fill:#353535;}
	.st17{font-family:'Reef-Bold';}
	.st18{font-size:19.2292px;}
	.st19{fill:#CCCCCC;}
	.st20{fill:none;stroke:#475677;stroke-width:5;stroke-linecap:round;stroke-miterlimit:10;}
	.st21{fill:#474747;}
	.st22{fill:#C29165;}
	.st23{fill:#CF9A6B;}
	.st24{fill:#AD815A;}
	.st25{opacity:0.5;fill:#383838;}
	.st26{fill:#EC6B56;}
	.st27{fill:#61BC6D;}
	.st28{fill:#3A3A3A;}
	.st29{fill:#BC3F31;}
	.st30{fill:#40A049;}
	.st31{fill:none;stroke:#BC3F31;stroke-miterlimit:10;}
	.st32{fill:none;stroke:#40A049;stroke-miterlimit:10;}
	.st33{fill:#A5A5A5;}
	.st34{fill:none;stroke:#263242;stroke-width:4;stroke-linecap:round;stroke-miterlimit:10;}
	.st35{clip-path:url(#SVGID_2_);fill:#2B8272;}
	.st36{fill:#4B9587;}
	.st37{fill:#359685;}
	.st38{fill:#53A697;}
	.st39{fill:#3DB39E;}
	.st40{fill:#81CEC0;}
	.st41{fill:#C18B63;}
	.st42{clip-path:url(#SVGID_4_);fill:#2B8272;}
	.st43{fill:#75706D;}
	.st44{fill:#41A85F;}
	.st45{opacity:0.1;}
	.st46{fill:#E7B28A;}
	.st47{opacity:0.2;fill:#5B5B5B;}
	.st48{fill:#4A4C47;}
	.st49{fill:#333530;}
	.st50{fill:url(#);}
	.st51{fill:#FAA026;}
	.st52{fill:#BC7622;}
	.st53{clip-path:url(#SVGID_10_);}
	.st54{fill:#C0BFC4;}
	.st55{clip-path:url(#SVGID_12_);}
	.st56{fill:#A6A5AB;}
	.st57{fill:none;stroke:url(#);stroke-width:8;stroke-miterlimit:10;}
	.st58{fill:none;stroke:url(#);stroke-width:7;stroke-miterlimit:10;}
	.st59{fill:none;stroke:url(#);stroke-width:6;stroke-miterlimit:10;}
	.st60{fill:#F8DB65;}
	.st61{fill:#FAC51F;}
	.st62{fill:#2A69B0;}
	.st63{fill:#D14840;}
	.st64{clip-path:url(#SVGID_18_);}
	.st65{fill:none;}
	.st66{fill:#515056;}
	.st67{clip-path:url(#SVGID_20_);}
	.st68{fill:#38373C;}
	.st69{clip-path:url(#SVGID_22_);}
	.st70{fill:#CCE1F2;}
	.st71{clip-path:url(#SVGID_24_);}
	.st72{fill:#AFD3EE;}
	.st73{clip-path:url(#SVGID_26_);}
	.st74{fill:#83828A;}
	.st75{clip-path:url(#SVGID_28_);}
	.st76{fill:#1CBB9B;}
	.st77{fill:#098C6D;}
	.st78{fill:none;stroke:url(#);stroke-width:7.769;stroke-linecap:round;stroke-miterlimit:10;}
	.st79{fill:#9265B8;}
	.st80{fill:#553984;}
	.st81{fill:none;stroke:#FFFFFF;stroke-width:3;stroke-linecap:round;stroke-miterlimit:10;}
	.st82{fill:#28812F;}
	.st83{fill:#ECD361;}
	.st84{fill:#38454F;}
	.st85{fill:#283238;}
	.st86{fill:#5E5E60;}
	.st87{fill:#546A79;}
	.st88{fill:#CBD4D8;}
	.st89{fill:#FFD85C;}
	.st90{fill:#FF503D;}
	.st91{fill:#8EC766;}
	.st92{opacity:0.2;clip-path:url(#SVGID_32_);fill:#FFFFFF;}
	.st93{fill:#FEA621;}
	.st94{fill:#5065A1;}
	.st95{fill:#E6E7E8;}
	.st96{fill:#1ABC9C;}
	.st97{fill:#9B59B6;}
	.st98{opacity:0.3;fill:#606060;}
	.st99{fill:#EF717A;}
	.st100{fill:#3498DB;}
</style>
<g id="BACKGROUND">
</g>
<g id="DESIGNED_BY_FREEPIK">
</g>
<g id="OBJECTS">
	<rect y="-0.1" class="st0" width="443.3" height="274"/>
	<g>
		<circle class="st2" cx="226.5" cy="123.9" r="37.9"/>
		<g class="st4">
			<g>
				<path class="st2" d="M178.9,114.8c-0.2,0-0.4,0-0.6-0.1c-1.3-0.3-2.2-1.6-1.9-3c5.3-23.2,26.3-40,50-40c22,0,41.5,14.1,48.6,35
					c0.4,1.3-0.3,2.7-1.6,3.2c-1.3,0.4-2.7-0.3-3.2-1.6c-6.4-18.9-24-31.6-43.9-31.6c-21.4,0-40.4,15.2-45.2,36.1
					C181.1,114,180,114.8,178.9,114.8z"/>
			</g>
			<g>
				<g>
					<path class="st2" d="M177.7,123.4c2.6-5,6.7-11,10.7-14.6l-9.1,2.1l-8.3-4.2C173.9,111,176.4,117.9,177.7,123.4z"/>
				</g>
			</g>
		</g>
		<g class="st4">
			<g>
				<path class="st2" d="M226.5,176.1c-22,0-41.5-14.1-48.6-35c-0.4-1.3,0.3-2.7,1.6-3.2c1.3-0.4,2.7,0.3,3.2,1.6
					c6.4,18.9,24,31.6,43.9,31.6c21.4,0,40.4-15.2,45.2-36.1c0.3-1.3,1.7-2.2,3-1.9c1.3,0.3,2.2,1.6,1.9,3
					C271.2,159.3,250.2,176.1,226.5,176.1z"/>
			</g>
			<g>
				<g>
					<path class="st2" d="M275.3,124.5c-2.6,5-6.7,11-10.7,14.6l9.1-2.1l8.3,4.2C279.1,136.8,276.6,129.9,275.3,124.5z"/>
				</g>
			</g>
		</g>
		<g>
			<g>
				<text transform="matrix(1 0 0 1 212.1393 120.3672)" class="st0 st17 st18">Pick</text>
			</g>
			<g>
				<text transform="matrix(1 0 0 1 217.0544 138.3917)" class="st0 st17 st18">Up</text>
			</g>
		</g>
	</g>
	<g>
		<g>
			<g>
				<path class="st5" d="M269.6,234.1c-3.7,0-7-2.7-7.7-6.4c-0.8-4.3,2-8.4,6.3-9.2c58.7-10.8,59.6-37.3,59.6-37.5
					c-0.1-4.3,3.3-8,7.6-8.1c4.3-0.1,8,3.3,8.1,7.6c0,1.6,0.3,40-72.5,53.5C270.6,234.1,270.1,234.1,269.6,234.1z"/>
			</g>
		</g>
		<circle class="st6" cx="269.6" cy="226.3" r="8.1"/>
	</g>
	<path class="st7" d="M400.6,120.5c0,0-3.3,17.1-14.9,21.8c-1.1-3.9,8.3-46.1,14.3-42.9C400.3,101.7,401.2,118.5,400.6,120.5z"/>
	<circle class="st6" cx="402.5" cy="111.7" r="10"/>
	<path class="st8" d="M400.2,200.8c0,17.9-14.5,32.5-32.5,32.5h-25.5c-17.9,0-32.5-14.5-32.5-32.5v-2.3c0-17.9,14.5-32.5,32.5-32.5
		h25.5c17.9,0,32.5,14.5,32.5,32.5V200.8z"/>
	<path class="st8" d="M367.7,166H355v67.3h12.7c17.9,0,32.5-14.5,32.5-32.5v-2.3C400.2,180.6,385.7,166,367.7,166z"/>
	<path class="st9" d="M370.5,172.7c0,10.1-15.1,20.1-15.1,20.1s-15.1-10-15.1-20c0-10.1,6.5-12.7,15.1-12.7
		C364,160,370.5,162.7,370.5,172.7z"/>
	<path class="st6" d="M368.2,170.1c0,7.1-5.8,12.9-12.9,12.9l0,0c-7.1,0-12.9-5.8-12.9-12.9V150c0-7.1,5.8-12.9,12.9-12.9l0,0
		c7.1,0,12.9,5.8,12.9,12.9V170.1z"/>
	<path class="st9" d="M355.4,137.1c-7.1,0-12.9,5.8-12.9,12.9v10.9c3.7,1.3,8.1,2.1,12.9,2.1c4.7,0,9.2-0.8,12.9-2.1V150
		C368.2,142.9,362.5,137.1,355.4,137.1z"/>
	<circle class="st6" cx="351.3" cy="111.7" r="47.7"/>
	<circle class="st10" cx="322.2" cy="118.9" r="3.6"/>
	<circle class="st10" cx="351.4" cy="118.9" r="3.6"/>
	<path class="st7" d="M381.2,86.9c0,0,12.4,16.7,19.2,15.5c-2.1-27.3-19-43.6-49.1-43.6c-24.8,0-31.4,8.8-51.6,1.6
		C284.3,122.8,357,107.7,381.2,86.9z"/>
	<g>
		<g>
			<path class="st11" d="M340.1,148.6c-0.5,0-1-0.4-1-0.9c0,0,0-0.1,0-0.1c0-2.9,2.4-5.3,5.3-5.3c2.9,0,5.3,2.4,5.3,5.3
				c0,0.5-0.4,1-1,1s-1-0.4-1-1c0-1.9-1.5-3.4-3.4-3.4s-3.4,1.5-3.4,3.4C341,148.1,340.6,148.6,340.1,148.6
				C340.1,148.6,340.1,148.6,340.1,148.6z"/>
		</g>
	</g>
	<g class="st12">
		<path class="st13" d="M391.8,176.5c0.5,1,0.7,2,0.8,3.2c0,1.5,0.2,36.3-62.1,51.2c3.7,1.4,7.6,2.2,11.8,2.2h25.5
			c17.9,0,32.5-14.5,32.5-32.5v-2.3C400.3,189.9,397,182.2,391.8,176.5z"/>
	</g>
	<g>
		<g>
			<g>
				<path class="st5" d="M318.6,234.1c-3.7,0-7-2.7-7.7-6.4c-0.8-4.3,2-8.4,6.3-9.2c58.7-10.8,59.6-37.3,59.6-37.5
					c-0.1-4.3,3.3-8,7.6-8.1c4.3-0.1,8,3.3,8.1,7.6c0,1.6,0.3,40-72.5,53.5C319.6,234.1,319.1,234.1,318.6,234.1z"/>
			</g>
		</g>
		<circle class="st6" cx="318.6" cy="226.3" r="8.1"/>
	</g>
	<g>
		<path class="st19" d="M306.9,236.8h-21.5c-2.8,0-5.3-2.3-5.7-5l-6.1-43.6c-0.4-2.8,1.5-5,4.3-5h21.5c2.8,0,5.3,2.3,5.7,5l6.1,43.6
			C311.6,234.6,309.7,236.8,306.9,236.8z"/>
		<path class="st1" d="M305.1,239.5h-21.5c-2.8,0-5.3-2.3-5.7-5l-6.1-43.6c-0.4-2.8,1.5-5,4.3-5h21.5c2.8,0,5.3,2.3,5.7,5l6.1,43.6
			C309.7,237.3,307.8,239.5,305.1,239.5z"/>
		<path class="st2" d="M294.1,202.7c0.4,3-1.7,5.4-4.6,5.4s-5.8-2.4-6.2-5.4c-0.4-3,1.7-5.4,4.6-5.4S293.7,199.7,294.1,202.7z"/>
		<path class="st2" d="M279,192.5c0.2,1.2-0.7,2.2-1.9,2.2s-2.3-1-2.5-2.2c-0.2-1.2,0.7-2.2,1.9-2.2
			C277.7,190.3,278.8,191.3,279,192.5z"/>
	</g>
	<g>
		<path class="st8" d="M108.7,165.2H95.9v67.3h12.7c17.9,0,32.5-14.5,32.5-32.5v-2.3C141.1,179.8,126.6,165.2,108.7,165.2z"/>
		<path class="st9" d="M111.4,171.9c0,10.1-15.1,20.1-15.1,20.1s-15.1-10-15.1-20c0-10.1,6.5-12.7,15.1-12.7
			C104.9,159.2,111.4,161.9,111.4,171.9z"/>
		<path class="st23" d="M109.2,169.3c0,7.1-5.8,12.9-12.9,12.9l0,0c-7.1,0-12.9-5.8-12.9-12.9v-20.1c0-7.1,5.8-12.9,12.9-12.9l0,0
			c7.1,0,12.9,5.8,12.9,12.9V169.3z"/>
		<path class="st41" d="M96.3,136.3c-7.1,0-12.9,5.8-12.9,12.9v10.9c3.7,1.3,8.1,2.1,12.9,2.1c4.7,0,9.2-0.8,12.9-2.1v-10.9
			C109.2,142.1,103.4,136.3,96.3,136.3z"/>
		<circle class="st6" cx="92.3" cy="110.9" r="47.7"/>
		<path class="st14" d="M141.1,200c0,17.9-14.5,32.5-32.5,32.5H83.2c-17.9,0-32.5-14.5-32.5-32.5v-2.3c0-17.9,14.5-32.5,32.5-32.5
			h25.5c17.9,0,32.5,14.5,32.5,32.5V200z"/>
		<ellipse class="st7" cx="92.4" cy="110.9" rx="49.6" ry="48.8"/>
		<path class="st23" d="M141.9,110.9c0-6-1.1-11.7-3.1-17c-17.7,7.4-30.2,24.8-30.2,45c0,6,1.1,11.7,3.1,17
			C129.5,148.4,141.9,131.1,141.9,110.9z"/>
		<circle class="st23" cx="107.2" cy="138.9" r="11.8"/>
		<path class="st16" d="M97.4,182.1c0,0,4.8,27.6,35.3,39.8c0,0-1.9,2-4.6,4.2C124.9,228.6,98.2,214.3,97.4,182.1z"/>
		<path class="st14" d="M94,103.8l-50.2,3.6c-0.9-13.1,3.3-26,11.7-36c17.8-21.1,49.8-23.8,70.9-6c11.1,9.3,17.6,23,17.9,37.4
			L94,103.8z"/>
		<line class="st20" x1="141.3" y1="101" x2="163.7" y2="101.1"/>
		<g>
			<path class="st15" d="M171.4,233.3c3.7,0,7-2.7,7.7-6.4c0.8-4.3-2-8.4-6.3-9.2c-58.7-10.8-59.6-37.3-59.6-37.5
				c0.1-4.3-3.3-8-7.6-8.1c-4.3-0.1-8,3.3-8.1,7.6c0,1.6-0.3,40,72.5,53.5C170.4,233.3,170.9,233.3,171.4,233.3z"/>
			<circle class="st23" cx="171.4" cy="225.5" r="8.1"/>
		</g>
	</g>
	<g>
	</g>
</g>
</svg>
