<?xml version="1.0" encoding="utf-8"?>
<!-- Generator: Adobe Illustrator 21.0.0, SVG Export Plug-In . SVG Version: 6.00 Build 0)  -->
<svg version="1.1" xmlns="http://www.w3.org/2000/svg" xmlns:xlink="http://www.w3.org/1999/xlink" x="0px" y="0px"
	 viewBox="0 0 536.3 387" style="enable-background:new 0 0 536.3 387;" xml:space="preserve">
<style type="text/css">
	.st0{fill:#55ADD3;}
	.st1{fill:#E2E2E2;}
	.st2{fill:#FFFFFF;}
	.st3{opacity:0.2;fill:#FFFFFF;}
	.st4{opacity:0.2;}
	.st5{fill:#7F1416;}
	.st6{fill:#F7B78F;}
	.st7{fill:#623412;}
	.st8{fill:#A61E22;}
	.st9{fill:#E8AC86;}
	.st10{fill:#262626;}
	.st11{fill:#7C4739;}
	.st12{opacity:0.41;}
	.st13{fill:#0C0C0C;}
	.st14{fill:#475677;}
	.st15{fill:#3C4C66;}
	.st16{opacity:0.5;fill:#353535;}
	.st17{fill:#CCCCCC;}
	.st18{fill:none;stroke:#475677;stroke-width:5;stroke-linecap:round;stroke-miterlimit:10;}
	.st19{fill:#474747;}
	.st20{fill:#C29165;}
	.st21{fill:#CF9A6B;}
	.st22{fill:#AD815A;}
	.st23{opacity:0.5;fill:#383838;}
	.st24{fill:#EC6B56;}
	.st25{fill:#61BC6D;}
	.st26{fill:#3A3A3A;}
	.st27{fill:#BC3F31;}
	.st28{fill:#40A049;}
	.st29{fill:none;stroke:#BC3F31;stroke-miterlimit:10;}
	.st30{fill:none;stroke:#40A049;stroke-miterlimit:10;}
	.st31{fill:#A5A5A5;}
	.st32{fill:none;stroke:#263242;stroke-width:4;stroke-linecap:round;stroke-miterlimit:10;}
	.st33{clip-path:url(#SVGID_2_);fill:#2B8272;}
	.st34{fill:#4B9587;}
	.st35{fill:#359685;}
	.st36{fill:#53A697;}
	.st37{fill:#3DB39E;}
	.st38{fill:#81CEC0;}
	.st39{fill:#C18B63;}
	.st40{clip-path:url(#SVGID_4_);fill:#2B8272;}
	.st41{fill:#75706D;}
	.st42{fill:#41A85F;}
	.st43{opacity:0.1;}
	.st44{fill:#E7B28A;}
	.st45{opacity:0.2;fill:#5B5B5B;}
	.st46{fill:#4A4C47;}
	.st47{fill:#333530;}
	.st48{fill:url(#);}
	.st49{fill:#FAA026;}
	.st50{fill:#BC7622;}
	.st51{clip-path:url(#SVGID_10_);}
	.st52{fill:#C0BFC4;}
	.st53{clip-path:url(#SVGID_12_);}
	.st54{fill:#A6A5AB;}
	.st55{fill:none;stroke:url(#);stroke-width:8;stroke-miterlimit:10;}
	.st56{fill:none;stroke:url(#);stroke-width:7;stroke-miterlimit:10;}
	.st57{fill:none;stroke:url(#);stroke-width:6;stroke-miterlimit:10;}
	.st58{fill:#F8DB65;}
	.st59{fill:#FAC51F;}
	.st60{fill:#2A69B0;}
	.st61{fill:#D14840;}
	.st62{clip-path:url(#SVGID_18_);}
	.st63{fill:none;}
	.st64{fill:#515056;}
	.st65{clip-path:url(#SVGID_20_);}
	.st66{fill:#38373C;}
	.st67{clip-path:url(#SVGID_22_);}
	.st68{fill:#CCE1F2;}
	.st69{clip-path:url(#SVGID_24_);}
	.st70{fill:#AFD3EE;}
	.st71{clip-path:url(#SVGID_26_);}
	.st72{fill:#83828A;}
	.st73{clip-path:url(#SVGID_28_);}
	.st74{fill:#1CBB9B;}
	.st75{fill:#098C6D;}
	.st76{fill:none;stroke:url(#);stroke-width:7.769;stroke-linecap:round;stroke-miterlimit:10;}
	.st77{fill:#9265B8;}
	.st78{fill:#553984;}
	.st79{fill:none;stroke:#FFFFFF;stroke-width:3;stroke-linecap:round;stroke-miterlimit:10;}
	.st80{fill:#28812F;}
	.st81{fill:#ECD361;}
	.st82{fill:#38454F;}
	.st83{fill:#283238;}
	.st84{fill:#5E5E60;}
	.st85{fill:#546A79;}
	.st86{fill:#CBD4D8;}
	.st87{fill:#FFD85C;}
	.st88{fill:#FF503D;}
	.st89{fill:#8EC766;}
	.st90{opacity:0.2;clip-path:url(#SVGID_32_);fill:#FFFFFF;}
	.st91{font-family:'Reef-Bold';}
	.st92{font-size:24.2512px;}
	.st93{fill:#FEA621;}
	.st94{fill:#5065A1;}
	.st95{fill:#E6E7E8;}
	.st96{fill:#1ABC9C;}
	.st97{fill:#9B59B6;}
	.st98{opacity:0.3;fill:#606060;}
	.st99{fill:#EF717A;}
	.st100{fill:#3498DB;}
</style>
<g id="BACKGROUND">
</g>
<g id="DESIGNED_BY_FREEPIK">
</g>
<g id="OBJECTS">
	<path class="st0" d="M494.6,383.7H41.7c-20.4,0-36.9-16.5-36.9-36.9V40.2c0-20.4,16.5-36.9,36.9-36.9h452.9
		c20.4,0,36.9,16.5,36.9,36.9v306.7C531.4,367.2,514.9,383.7,494.6,383.7z"/>
	<g>
		<path class="st19" d="M468.6,309.4H122.3c-1.6,0-3-1.3-3-3v-3.1c0-1.6,1.3-3,3-3h346.4c1.6,0,3,1.3,3,3v3.1
			C471.6,308.1,470.2,309.4,468.6,309.4z"/>
		<g>
			<path class="st5" d="M310.8,267.2c-3.1,0-6.4-0.3-9.9-0.9c-11.3-1.9-20.1-7.2-26.1-15.9c-12.4-17.9-7.4-43.7-7.2-44.7L284,209
				c0,0.2-3.8,19.9,4.6,32c3.3,4.8,8.2,7.7,15,8.8c27.6,4.6,34-18.3,34.3-19.2l16.2,4.3C350.9,246.9,337.9,267.2,310.8,267.2z"/>
		</g>
		<g>
			<path class="st1" d="M303.9,291.3h-68.5c-2.8,0-5-2.3-5-5v-57c0-2.8,2.3-5,5-5h68.5c2.8,0,5,2.3,5,5v57
				C308.9,289.1,306.6,291.3,303.9,291.3z"/>
			<path class="st1" d="M331.6,300.4h-95.4c-1.2,0-2.2-1-2.2-2.2v-4.6c0-1.2,1-2.2,2.2-2.2h95.4c1.2,0,2.2,1,2.2,2.2v4.6
				C333.8,299.4,332.8,300.4,331.6,300.4z"/>
			<ellipse class="st2" cx="263.1" cy="257.8" rx="8.1" ry="10.9"/>
			<g>
				<defs>
					<path id="SVGID_29_" d="M303.9,291.3h-68.5c-2.8,0-5-2.3-5-5v-57c0-2.8,2.3-5,5-5h68.5c2.8,0,5,2.3,5,5v57
						C308.9,289.1,306.6,291.3,303.9,291.3z"/>
				</defs>
				<clipPath id="SVGID_2_">
					<use xlink:href="#SVGID_29_"  style="overflow:visible;"/>
				</clipPath>
			</g>
			<g>
				<defs>
					<path id="SVGID_31_" d="M303.9,291.3h-68.5c-2.8,0-5-2.3-5-5v-57c0-2.8,2.3-5,5-5h68.5c2.8,0,5,2.3,5,5v57
						C308.9,289.1,306.6,291.3,303.9,291.3z"/>
				</defs>
				<clipPath id="SVGID_4_">
					<use xlink:href="#SVGID_31_"  style="overflow:visible;"/>
				</clipPath>
				<rect x="263.1" y="211.1" style="opacity:0.2;clip-path:url(#SVGID_4_);fill:#FFFFFF;" width="56.2" height="93.4"/>
			</g>
		</g>
		<path class="st1" d="M300.6,199.8h-26.3c-1.7,0-3-1.4-3-3v-46.9c0-1.7,1.4-3,3-3h26.3c1.7,0,3,1.4,3,3v46.9
			C303.7,198.5,302.3,199.8,300.6,199.8z"/>
		<circle class="st6" cx="276.1" cy="202.9" r="10.2"/>
		<circle class="st2" cx="287.5" cy="162.8" r="6.3"/>
		<g>
			<g>
				<circle class="st2" cx="136.6" cy="154.1" r="47.8"/>
				<g>
					<g>
						<text transform="matrix(1 0 0 1 107.2891 149.6597)" class="st0 st91 st92">Online</text>
					</g>
					<g>
						<text transform="matrix(1 0 0 1 107.2354 172.3907)" class="st0 st91 st92">Repair</text>
					</g>
				</g>
			</g>
			<path class="st3" d="M106.4,105.1c2.7-1.9,4.3-4.6,3.6-8.2l-5.9,4.2l-4.4-1.9l-0.3-4.8l5.9-4.2c-2.6-1.2-6.2-1.2-9,0.7
				c-3.4,2.4-4.5,6.8-3,10.4l-13.6,13.7c-2.6-1.1-5.8-0.9-8.3,0.9c-2.7,1.9-4,5-3.7,8.1c0,0,0.5,4.7,4.6,6.8
				c2.8,1.4,6.3,1.4,9.1-0.5c3.2-2.2,4.5-6.2,3.4-9.8l14.1-14.2C101.2,107.1,104,106.8,106.4,105.1L106.4,105.1z M79.5,126.7
				l-4.8,1.5l-3.2-3.2l1.5-4.8l4.8-1.5l3.2,3.2L79.5,126.7z M79.5,126.7"/>
			<g class="st4">
				<path class="st2" d="M143.7,82.8l-3-0.5c-0.2-0.9-0.5-1.7-0.9-2.5l1.9-2.4c0.4-0.5,0.4-1.2,0-1.7l-1.2-1.3
					c-0.4-0.5-1.1-0.6-1.7-0.2l-2.6,1.6c-1.1-0.8-2.4-1.4-3.8-1.7l-0.5-3c-0.1-0.6-0.7-1.1-1.3-1.1h-1.8c-0.6,0-1.2,0.5-1.3,1.1
					l-0.5,3c-1.1,0.3-2.2,0.7-3.2,1.3l-2.4-1.7c-0.5-0.4-1.2-0.3-1.7,0.1l-1.3,1.3c-0.5,0.5-0.5,1.2-0.1,1.7l1.7,2.4
					c-0.6,1-1,2-1.3,3.2l-3,0.5c-0.6,0.1-1.1,0.7-1.1,1.3v1.8c0,0.6,0.5,1.2,1.1,1.3l3,0.5c0.2,0.9,0.6,1.8,1,2.6l-1.9,2.4
					c-0.4,0.5-0.4,1.2,0,1.7l1.2,1.3c0.4,0.5,1.1,0.6,1.7,0.2l2.6-1.6c1.1,0.8,2.3,1.3,3.7,1.6l0.5,3c0.1,0.6,0.7,1.1,1.3,1.1h1.8
					c0.6,0,1.2-0.5,1.3-1.1l0.5-3c1.1-0.3,2.2-0.7,3.1-1.3l2.5,1.8c0.5,0.4,1.2,0.3,1.7-0.1l1.3-1.3c0.5-0.5,0.5-1.2,0.1-1.7
					l-1.8-2.5c0.6-1,1-2,1.3-3.2l3-0.5c0.6-0.1,1.1-0.7,1.1-1.3v-1.8C144.8,83.4,144.4,82.9,143.7,82.8L143.7,82.8z M129.8,90.6
					c-3.1,0-5.7-2.5-5.7-5.7c0-3.1,2.5-5.7,5.7-5.7c3.1,0,5.7,2.5,5.7,5.7C135.5,88.1,132.9,90.6,129.8,90.6L129.8,90.6z
					 M129.8,90.6"/>
			</g>
			<path class="st3" d="M185.7,123.8c1.9,2.7,4.6,4.3,8.2,3.6l-4.2-5.8l1.9-4.4l4.8-0.3l4.2,5.9c1.2-2.6,1.2-6.2-0.7-9
				c-2.4-3.4-6.8-4.5-10.4-3l-13.7-13.6c1.1-2.6,0.9-5.8-0.9-8.3c-1.9-2.7-5-4-8.1-3.7c0,0-4.7,0.5-6.8,4.6
				c-1.4,2.8-1.4,6.3,0.5,9.1c2.2,3.2,6.2,4.5,9.8,3.4l14.2,14.1C183.7,118.7,184,121.5,185.7,123.8L185.7,123.8z M164.1,97
				l-1.5-4.8l3.2-3.2l4.8,1.5l1.5,4.8l-3.2,3.2L164.1,97z M164.1,97"/>
			<g class="st4">
				<path class="st2" d="M208,161.2l0.5-3c0.9-0.2,1.7-0.5,2.5-0.9l2.4,1.9c0.5,0.4,1.2,0.4,1.7,0l1.3-1.2c0.5-0.4,0.6-1.1,0.2-1.7
					l-1.6-2.6c0.8-1.1,1.4-2.4,1.7-3.8l3-0.5c0.6-0.1,1.1-0.7,1.1-1.3v-1.8c0-0.6-0.5-1.2-1.1-1.3l-3-0.5c-0.3-1.1-0.7-2.2-1.3-3.2
					l1.7-2.4c0.4-0.5,0.3-1.2-0.1-1.7l-1.3-1.3c-0.5-0.5-1.2-0.5-1.7-0.1l-2.4,1.7c-1-0.6-2-1-3.2-1.3l-0.5-3
					c-0.1-0.6-0.7-1.1-1.3-1.1h-1.8c-0.6,0-1.2,0.5-1.3,1.1l-0.5,3c-0.9,0.2-1.8,0.6-2.6,1l-2.4-1.9c-0.5-0.4-1.2-0.4-1.7,0
					l-1.3,1.2c-0.5,0.4-0.6,1.1-0.2,1.7l1.6,2.6c-0.8,1.1-1.3,2.3-1.6,3.7l-3,0.5c-0.6,0.1-1.1,0.7-1.1,1.3v1.8
					c0,0.6,0.5,1.2,1.1,1.3l3,0.5c0.3,1.1,0.7,2.2,1.3,3.1l-1.8,2.5c-0.4,0.5-0.3,1.2,0.1,1.7l1.3,1.3c0.5,0.5,1.2,0.5,1.7,0.1
					l2.5-1.8c1,0.6,2,1,3.2,1.3l0.5,3c0.1,0.6,0.7,1.1,1.3,1.1h1.8C207.4,162.3,207.9,161.9,208,161.2L208,161.2z M200.2,147.3
					c0-3.1,2.5-5.7,5.7-5.7c3.1,0,5.7,2.5,5.7,5.7c0,3.1-2.5,5.7-5.7,5.7C202.7,152.9,200.2,150.4,200.2,147.3L200.2,147.3z
					 M200.2,147.3"/>
			</g>
			<path class="st3" d="M166.9,203.2c-2.7,1.9-4.3,4.6-3.6,8.2l5.9-4.2l4.4,1.9l0.3,4.8l-5.9,4.2c2.6,1.2,6.2,1.2,9-0.7
				c3.4-2.4,4.5-6.8,3-10.4l13.6-13.7c2.6,1.1,5.8,0.9,8.3-0.9c2.7-1.9,4-5,3.7-8.1c0,0-0.5-4.7-4.6-6.8c-2.8-1.4-6.3-1.4-9.1,0.5
				c-3.2,2.2-4.5,6.2-3.4,9.8l-14.1,14.2C172.1,201.1,169.3,201.5,166.9,203.2L166.9,203.2z M193.8,181.6l4.8-1.5l3.2,3.2l-1.5,4.8
				l-4.8,1.5l-3.2-3.2L193.8,181.6z M193.8,181.6"/>
			<g class="st4">
				<path class="st2" d="M129.6,225.5l3,0.5c0.2,0.9,0.5,1.7,0.9,2.5l-1.9,2.4c-0.4,0.5-0.4,1.2,0,1.7l1.2,1.3
					c0.4,0.5,1.1,0.6,1.7,0.2l2.6-1.6c1.1,0.8,2.4,1.4,3.8,1.7l0.5,3c0.1,0.6,0.7,1.1,1.3,1.1h1.8c0.6,0,1.2-0.5,1.3-1.1l0.5-3
					c1.1-0.3,2.2-0.7,3.2-1.3l2.4,1.7c0.5,0.4,1.2,0.3,1.7-0.1l1.3-1.3c0.5-0.5,0.5-1.2,0.1-1.7l-1.7-2.4c0.6-1,1-2,1.3-3.2l3-0.5
					c0.6-0.1,1.1-0.7,1.1-1.3v-1.8c0-0.6-0.5-1.2-1.1-1.3l-3-0.5c-0.2-0.9-0.6-1.8-1-2.6l1.9-2.4c0.4-0.5,0.4-1.2,0-1.7l-1.2-1.3
					c-0.4-0.5-1.1-0.6-1.7-0.2l-2.6,1.6c-1.1-0.8-2.3-1.3-3.7-1.6l-0.5-3c-0.1-0.6-0.7-1.1-1.3-1.1h-1.8c-0.6,0-1.2,0.5-1.3,1.1
					l-0.5,3c-1.1,0.3-2.2,0.7-3.1,1.3l-2.5-1.8c-0.5-0.4-1.2-0.3-1.7,0.1l-1.3,1.3c-0.5,0.5-0.5,1.2-0.1,1.7l1.8,2.5
					c-0.6,1-1,2-1.3,3.2l-3,0.5c-0.6,0.1-1.1,0.7-1.1,1.3v1.8C128.5,224.9,128.9,225.4,129.6,225.5L129.6,225.5z M143.5,217.7
					c3.1,0,5.7,2.5,5.7,5.7c0,3.1-2.5,5.7-5.7,5.7c-3.1,0-5.7-2.5-5.7-5.7C137.8,220.2,140.4,217.7,143.5,217.7L143.5,217.7z
					 M143.5,217.7"/>
			</g>
			<path class="st3" d="M87.6,184.4c-1.9-2.7-4.6-4.3-8.2-3.6l4.2,5.9l-1.9,4.4l-4.8,0.3l-4.2-5.9c-1.2,2.6-1.2,6.2,0.7,9
				c2.4,3.4,6.8,4.5,10.4,3l13.7,13.6c-1.1,2.6-0.9,5.8,0.9,8.3c1.9,2.7,5,4,8.1,3.7c0,0,4.7-0.5,6.8-4.6c1.4-2.8,1.4-6.3-0.5-9.1
				c-2.2-3.2-6.2-4.5-9.8-3.4l-14.2-14.1C89.6,189.6,89.3,186.8,87.6,184.4L87.6,184.4z M109.2,211.3l1.5,4.8l-3.2,3.2l-4.8-1.5
				l-1.5-4.8l3.2-3.2L109.2,211.3z M109.2,211.3"/>
			<g class="st4">
				<path class="st2" d="M65.3,147l-0.5,3c-0.9,0.2-1.7,0.5-2.5,0.9l-2.4-1.9c-0.5-0.4-1.2-0.4-1.7,0l-1.3,1.2
					c-0.5,0.4-0.6,1.1-0.2,1.7l1.6,2.6c-0.8,1.1-1.4,2.4-1.7,3.8l-3,0.5c-0.6,0.1-1.1,0.7-1.1,1.3v1.8c0,0.6,0.5,1.2,1.1,1.3l3,0.5
					c0.3,1.1,0.7,2.2,1.3,3.2l-1.7,2.4c-0.4,0.5-0.3,1.2,0.1,1.7l1.3,1.3c0.5,0.5,1.2,0.5,1.7,0.1l2.4-1.7c1,0.6,2,1,3.2,1.3l0.5,3
					c0.1,0.6,0.7,1.1,1.3,1.1h1.8c0.6,0,1.2-0.5,1.3-1.1l0.5-3c0.9-0.2,1.8-0.6,2.6-1l2.4,1.9c0.5,0.4,1.2,0.4,1.7,0l1.3-1.2
					c0.5-0.4,0.6-1.1,0.2-1.7l-1.6-2.6c0.8-1.1,1.3-2.3,1.6-3.7l3-0.5c0.6-0.1,1.1-0.7,1.1-1.3v-1.8c0-0.6-0.5-1.2-1.1-1.3l-3-0.5
					c-0.3-1.1-0.7-2.2-1.3-3.1l1.8-2.5c0.4-0.5,0.3-1.2-0.1-1.7l-1.3-1.3c-0.5-0.5-1.2-0.5-1.7-0.1l-2.5,1.8c-1-0.6-2-1-3.2-1.3
					l-0.5-3c-0.1-0.6-0.7-1.1-1.3-1.1h-1.8C65.9,145.9,65.4,146.4,65.3,147L65.3,147z M73.1,161c0,3.1-2.5,5.7-5.7,5.7
					c-3.1,0-5.7-2.5-5.7-5.7c0-3.1,2.5-5.7,5.7-5.7C70.6,155.3,73.1,157.9,73.1,161L73.1,161z M73.1,161"/>
			</g>
		</g>
		<path class="st7" d="M444.4,157.6c0,0-4.2,21.6-18.8,27.4c-1.3-4.9,10.4-58.1,18.1-54.1C444,134,445.1,155.1,444.4,157.6z"/>
		<circle class="st6" cx="446.8" cy="146.6" r="12.6"/>
		<path class="st8" d="M443.9,258.9c0,22.6-18.3,41-41,41h-32.1c-22.6,0-41-18.3-41-41V256c0-22.6,18.3-41,41-41h32.1
			c22.6,0,41,18.3,41,41V258.9z"/>
		<path class="st8" d="M402.9,215.1h-16.1v84.8h16.1c22.6,0,41-18.3,41-41V256C443.9,233.4,425.5,215.1,402.9,215.1z"/>
		<path class="st9" d="M406.4,223.5c0,12.7-19,25.3-19,25.3s-19-12.6-19-25.3c0-12.7,8.2-16.1,19-16.1
			C398.2,207.5,406.4,210.8,406.4,223.5z"/>
		<path class="st6" d="M403.6,220.1c0,9-7.3,16.2-16.2,16.2l0,0c-9,0-16.2-7.3-16.2-16.2v-25.3c0-9,7.3-16.2,16.2-16.2l0,0
			c9,0,16.2,7.3,16.2,16.2V220.1z"/>
		<path class="st9" d="M387.3,178.6c-9,0-16.2,7.3-16.2,16.2v13.7c4.7,1.6,10.2,2.6,16.2,2.6c6,0,11.5-1,16.2-2.6v-13.7
			C403.6,185.9,396.3,178.6,387.3,178.6z"/>
		<circle class="st6" cx="382.3" cy="146.6" r="60.2"/>
		<g>
			<circle class="st10" cx="345.5" cy="155.7" r="4.5"/>
			<circle class="st10" cx="382.4" cy="155.7" r="4.5"/>
		</g>
		<path class="st7" d="M420,115.3c0,0,15.7,21.1,24.2,19.6c-2.6-34.4-23.9-54.9-61.9-54.9c-31.2,0-39.7,11.1-65.1,2
			C297.7,160.6,389.4,141.5,420,115.3z"/>
		<g>
			<g>
				<path class="st11" d="M368,193c-0.7,0-1.2-0.5-1.2-1.2c0,0,0-0.1,0-0.1c0-3.7,3-6.7,6.7-6.7s6.7,3,6.7,6.7
					c0,0.7-0.5,1.2-1.2,1.2c-0.7,0-1.2-0.5-1.2-1.2c0-2.4-1.9-4.3-4.3-4.3s-4.3,1.9-4.3,4.3C369.2,192.5,368.7,193,368,193
					C368,193,368,193,368,193z"/>
			</g>
		</g>
		<g class="st12">
			<path class="st13" d="M433.2,228.2c0.6,1.2,0.9,2.6,1,4c0.1,2,0.3,45.7-78.3,64.6c4.6,1.8,9.6,2.8,14.9,2.8H403
				c22.6,0,41-18.3,41-41v-2.9C443.9,245.2,439.9,235.5,433.2,228.2z"/>
		</g>
		<g>
			<g>
				<g>
					<path class="st5" d="M341,300.9c-4.7,0-8.9-3.3-9.8-8.1c-1-5.4,2.6-10.6,8-11.6c74.1-13.7,75.2-47,75.2-47.4
						c-0.2-5.5,4.2-10,9.6-10.2c5.5-0.1,10,4.2,10.2,9.6c0.1,2.1,0.3,50.5-91.5,67.4C342.2,300.9,341.6,300.9,341,300.9z"/>
				</g>
			</g>
			<circle class="st6" cx="341" cy="291.1" r="10.2"/>
		</g>
	</g>
</g>
</svg>
