<?xml version="1.0" encoding="utf-8"?>
<!-- Generator: Adobe Illustrator 16.0.0, SVG Export Plug-In . SVG Version: 6.00 Build 0)  -->
<!DOCTYPE svg PUBLIC "-//W3C//DTD SVG 1.1//EN" "http://www.w3.org/Graphics/SVG/1.1/DTD/svg11.dtd">
<svg version="1.1" id="Layer_1" xmlns="http://www.w3.org/2000/svg" xmlns:xlink="http://www.w3.org/1999/xlink" x="0px" y="0px"
	 width="1190.549px" height="841.891px" viewBox="0 0 1190.549 841.891" enable-background="new 0 0 1190.549 841.891"
	 xml:space="preserve">
<path fill="#55ADD3" d="M1100.926,835.919H115.675c-44.379,0-80.273-35.895-80.273-80.271V88.661
	c0-44.379,35.895-80.273,80.273-80.273h985.251c44.378,0,80.272,35.895,80.272,80.273v667.203
	C1180.981,800.024,1145.086,835.919,1100.926,835.919z"/>
<g id="BACKGROUND">
</g>
<g id="DESIGNED_BY_FREEPIK">
</g>
<g>
	<circle fill="#FFFFFF" cx="608.3" cy="316.339" r="101.786"/>
	<g opacity="0.2">
		<g>
			<path fill="#FFFFFF" d="M480.463,291.631c-0.537,0-1.074,0-1.611-0.269c-3.491-0.806-5.908-4.297-5.103-8.057
				c14.233-62.307,70.632-107.426,134.282-107.426c59.084,0,111.455,37.868,130.522,93.998c1.074,3.492-0.806,7.251-4.297,8.594
				c-3.491,1.074-7.251-0.806-8.594-4.297c-17.188-50.759-64.456-84.867-117.9-84.867c-57.473,0-108.5,40.822-121.392,96.952
				C486.371,289.482,483.686,291.631,480.463,291.631z"/>
		</g>
		<g>
			<g>
				<path fill="#FFFFFF" d="M477.24,314.728c6.982-13.428,17.994-29.542,28.736-39.21l-24.439,5.64l-22.291-11.28
					C467.034,281.694,473.749,300.225,477.24,314.728z"/>
			</g>
		</g>
	</g>
	<g opacity="0.2">
		<g>
			<path fill="#FFFFFF" d="M608.3,456.53c-59.084,0-111.454-37.868-130.522-93.998c-1.074-3.491,0.806-7.251,4.297-8.595
				c3.491-1.074,7.251,0.807,8.594,4.298c17.188,50.759,64.456,84.866,117.9,84.866c57.473,0,108.5-40.822,121.392-96.952
				c0.806-3.491,4.565-5.908,8.057-5.103s5.909,4.297,5.103,8.057C728.617,411.143,671.95,456.53,608.3,456.53z"/>
		</g>
		<g>
			<g>
				<path fill="#FFFFFF" d="M739.36,317.682c-6.982,13.429-17.993,29.542-28.736,39.211l24.439-5.641l22.291,11.28
					C749.566,350.715,742.852,332.453,739.36,317.682z"/>
			</g>
		</g>
	</g>
	<g>
		<text transform="matrix(1 0 0 1 530.6321 333.542)" fill="#55ADD3" font-family="'ArialMT'" font-size="51.643">Delivery</text>
	</g>
	<g>
		<g>
			<g>
				<path fill="#7F1416" d="M724.321,682.931c-9.938,0-18.8-7.251-20.68-17.188c-2.148-11.548,5.371-22.56,16.92-24.708
					c157.647-29.005,160.064-100.175,160.064-100.712c-0.269-11.548,8.862-21.485,20.411-21.754
					c11.548-0.269,21.485,8.863,21.754,20.411c0,4.297,0.806,107.426-194.71,143.683
					C726.738,682.931,725.663,682.931,724.321,682.931z"/>
			</g>
		</g>
		<circle fill="#F7B78F" cx="724.321" cy="661.982" r="21.754"/>
	</g>
	<path fill="#623412" d="M1075.872,377.84c0,0-8.862,45.925-40.017,58.548c-2.954-10.475,22.291-123.809,38.405-115.215
		C1075.335,327.35,1077.484,372.469,1075.872,377.84z"/>
	<circle fill="#F7B78F" cx="1081.243" cy="354.207" r="26.857"/>
	<path fill="#A61E22" d="M1074.798,593.498c0,48.073-38.942,87.284-87.284,87.284h-68.483c-48.073,0-87.284-38.942-87.284-87.284
		v-6.177c0-48.073,38.942-87.284,87.284-87.284h68.483c48.073,0,87.284,38.942,87.284,87.284V593.498z"/>
	<path fill="#A61E22" d="M987.782,500.037h-34.376v180.745h34.107c48.073,0,87.284-38.942,87.284-87.284v-6.177
		C1074.798,539.248,1035.856,500.037,987.782,500.037z"/>
	<path fill="#E8AC86" d="M995.034,518.031c0,27.125-40.554,53.981-40.554,53.981s-40.554-26.856-40.554-53.713
		c0-27.125,17.457-34.107,40.554-34.107C977.577,483.924,995.034,490.906,995.034,518.031z"/>
	<path fill="#F7B78F" d="M989.125,510.78c0,19.068-15.576,34.645-34.645,34.645l0,0c-19.068,0-34.645-15.576-34.645-34.645v-53.981
		c0-19.068,15.576-34.646,34.645-34.646l0,0c19.068,0,34.645,15.577,34.645,34.646V510.78z"/>
	<path fill="#E8AC86" d="M954.481,422.422c-19.068,0-34.645,15.577-34.645,34.646v29.273c9.937,3.491,21.754,5.64,34.645,5.64
		c12.623,0,24.708-2.148,34.645-5.64v-29.273C989.125,437.73,973.549,422.422,954.481,422.422z"/>
	<circle fill="#F7B78F" cx="943.739" cy="354.207" r="128.106"/>
	<circle fill="#262626" cx="865.585" cy="373.543" r="9.668"/>
	<circle fill="#262626" cx="944.007" cy="373.543" r="9.668"/>
	<path fill="#623412" d="M1024.039,287.603c0,0,33.302,44.851,51.564,41.628c-5.64-73.319-51.027-117.095-131.865-117.095
		c-66.604,0-84.33,23.634-138.58,4.297C763.531,384.018,958.778,343.464,1024.039,287.603z"/>
	<g>
		<g>
			<path fill="#7C4739" d="M936.755,436.119c1.343,0,2.686,1.074,2.686,2.417v0.269c0,7.788-6.445,14.234-14.233,14.234
				c-7.789,0-14.234-6.446-14.234-14.234c0-1.343,1.074-2.686,2.686-2.686s2.686,1.074,2.686,2.686c0,5.103,4.029,9.131,9.132,9.131
				s9.131-4.028,9.131-9.131C934.338,437.462,935.412,436.119,936.755,436.119L936.755,436.119z"/>
		</g>
	</g>
	<g opacity="0.41">
		<path fill="#0C0C0C" d="M1052.239,527.969c1.343,2.686,1.88,5.371,2.148,8.594c0,4.028,0.537,97.489-166.779,137.505
			c9.938,3.761,20.411,5.909,31.691,5.909h68.483c48.073,0,87.284-38.942,87.284-87.284v-6.177
			C1075.067,564.225,1066.473,543.545,1052.239,527.969z"/>
	</g>
	<g>
		<g>
			<g>
				<path fill="#7F1416" d="M855.917,682.931c-9.937,0-18.8-7.251-20.68-17.188c-2.148-11.548,5.372-22.56,16.92-24.708
					c157.647-29.005,160.064-100.175,160.064-100.712c-0.269-11.548,8.863-21.485,20.411-21.754
					c11.549-0.269,21.485,8.863,21.754,20.411c0,4.297,0.806,107.426-194.71,143.683
					C858.334,682.931,857.26,682.931,855.917,682.931z"/>
			</g>
		</g>
		<circle fill="#F7B78F" cx="855.917" cy="661.982" r="21.754"/>
	</g>
	<g>
		<path fill="#CCCCCC" d="M824.495,690.182h-57.742c-7.52,0-14.233-6.177-15.308-13.428l-16.383-117.095
			c-1.074-7.52,4.028-13.429,11.549-13.429h57.741c7.52,0,14.233,6.178,15.309,13.429l16.382,117.095
			C837.117,684.005,831.746,690.182,824.495,690.182z"/>
		<path fill="#E2E2E2" d="M819.393,697.433h-57.742c-7.52,0-14.233-6.177-15.308-13.428L729.96,566.91
			c-1.074-7.52,4.028-13.428,11.548-13.428h57.742c7.52,0,14.233,6.177,15.308,13.428l16.383,117.095
			C832.015,691.524,826.644,697.433,819.393,697.433z"/>
		<path fill="#FFFFFF" d="M789.85,598.601c1.074,8.058-4.565,14.503-12.354,14.503s-15.577-6.445-16.651-14.503
			c-1.074-8.057,4.565-14.502,12.354-14.502C780.988,584.099,788.776,590.544,789.85,598.601z"/>
		<path fill="#FFFFFF" d="M749.297,570.938c0.537,3.223-1.88,5.909-5.103,5.909c-3.224,0-6.178-2.687-6.715-5.909
			s1.88-5.908,5.103-5.908C745.806,565.03,748.76,567.716,749.297,570.938z"/>
	</g>
	<path fill="#FFFFFF" d="M846.518,549.453c-0.269,0-0.537,0-1.074-0.269c-17.994-3.76-32.497-21.216-32.766-39.21l0,0
		c-0.269,17.457-14.233,28.736-31.69,25.514v0.269v0.269c17.457,4.297,31.422,21.485,31.69,38.941l0,0
		c0.269-17.725,14.771-29.273,32.766-25.245c0.269,0,0.537,0.269,1.074,0.269v-0.269V549.453z"/>
	<path fill="#FFFFFF" d="M769.44,710.593c-0.27,0-0.537,0-0.806-0.269c-15.577-3.223-28.2-18.531-28.2-34.107l0,0
		c-0.269,15.308-12.354,24.977-27.394,22.29v0.269v0.27c15.04,3.76,27.394,18.53,27.394,33.839l0,0
		c0.269-15.577,12.892-25.245,28.2-22.022c0.269,0,0.537,0,0.806,0.269v-0.269C769.44,710.861,769.44,710.861,769.44,710.593z"/>
	<path fill="#FFFFFF" d="M749.566,604.241c-0.269,0-0.537,0-0.537,0c-11.817-2.417-21.217-13.966-21.485-25.782l0,0
		c0,11.548-9.4,18.799-20.948,16.919v0.269v0.269c11.548,2.686,20.68,13.966,20.948,25.782l0,0c0-11.816,9.668-19.067,21.485-16.65
		c0.269,0,0.537,0,0.537,0.269C749.566,604.51,749.566,604.51,749.566,604.241L749.566,604.241z"/>
	<g>
		<g>
			<g>
				<defs>
					<rect id="SVGID_1_" x="434.001" y="543.545" width="103.666" height="150.934"/>
				</defs>
				<clipPath id="SVGID_2_">
					<use xlink:href="#SVGID_1_"  overflow="visible"/>
				</clipPath>
				<path clip-path="url(#SVGID_2_)" fill="#2B8272" d="M436.418,576.848l59.354-11.817c1.88-0.269,3.491,0.806,3.76,2.417
					l23.365,110.918c0.269,1.88-0.806,3.491-2.418,3.76l-59.621,11.816c-1.88,0.269-3.491-0.806-3.76-2.417l-23.097-110.917
					C433.733,578.996,434.807,577.116,436.418,576.848L436.418,576.848z"/>
			</g>
		</g>
		<path fill="#4B9587" d="M498.994,599.138l-5.372-26.319c0-0.806-1.074-1.343-1.88-1.343l-50.222,9.938
			c-0.806,0-1.343,1.074-1.343,1.88l5.371,26.319c0,0.806,1.074,1.343,1.881,1.343c0.806,0,1.343-1.074,1.343-1.88l-5.104-24.977
			l46.999-9.4l5.104,24.977c0,0.806,1.074,1.343,1.88,1.343C498.726,600.749,499.263,599.943,498.994,599.138L498.994,599.138z"/>
		<path fill="#359685" d="M451.727,558.316l60.427-5.908c1.88,0,3.223,1.074,3.491,2.686l14.503,118.437
			c0,1.88-1.074,3.224-2.954,3.492l-60.428,5.908c-1.88,0-3.223-1.074-3.491-2.686l-14.502-118.438
			C448.773,560.196,449.847,558.585,451.727,558.316L451.727,558.316z"/>
		<path fill="#53A697" d="M509.199,559.928c0-0.806-0.806-1.611-1.88-1.343l-51.027,4.834c-0.806,0-1.611,0.806-1.343,1.88
			l2.686,26.856c0,0.806,0.806,1.611,1.88,1.343c0.806,0,1.611-0.806,1.343-1.88l-2.417-25.245l47.805-4.565l2.417,25.245
			c0,0.806,0.806,1.611,1.88,1.343c0.806,0,1.611-0.806,1.343-1.88L509.199,559.928L509.199,559.928z"/>
		<path fill="#3DB39E" d="M472.406,543.545h61.77c1.88,0,3.223,1.343,3.223,3.223v122.734c0,1.88-1.343,3.223-3.223,3.223h-61.77
			c-1.881,0-3.224-1.343-3.224-3.223V546.768C469.183,545.156,470.526,543.545,472.406,543.545L472.406,543.545z"/>
		<path fill="#81CEC0" d="M479.657,608.27c0,13.159,10.474,23.365,23.365,23.365c12.891,0,23.365-10.475,23.365-23.365
			c0-12.892-10.475-23.365-23.365-23.365C490.4,584.636,479.657,595.378,479.657,608.27L479.657,608.27z"/>
		<path fill="#81CEC0" d="M529.611,643.451c-0.806,0-1.88,0.806-1.88,1.88v18.263h-49.416v-18.263c0-1.074-0.806-1.88-1.88-1.88
			c-0.806,0-1.88,0.806-1.88,1.88v19.874c0,0.806,0.806,1.88,1.88,1.88h52.907c1.074,0,1.88-0.806,1.88-1.88v-19.874
			C531.49,644.257,530.685,643.451,529.611,643.451L529.611,643.451z"/>
		<path fill="#81CEC0" d="M529.611,549.453h-52.907c-1.074,0-1.88,0.806-1.88,1.88v19.874c0,0.806,0.806,1.88,1.88,1.88
			c0.806,0,1.88-0.806,1.88-1.88v-18.262h49.416v18.262c0,0.806,0.806,1.88,1.88,1.88s1.88-0.806,1.88-1.88v-19.874
			C531.49,550.259,530.685,549.453,529.611,549.453L529.611,549.453z"/>
		<path fill="#81CEC0" d="M499.8,648.285c0,1.881,1.611,3.492,3.491,3.492s3.491-1.611,3.491-3.492c0-1.88-1.611-3.491-3.491-3.491
			C501.143,644.794,499.8,646.405,499.8,648.285L499.8,648.285z"/>
		<path fill="#81CEC0" d="M506.782,568.253c0-1.88-1.611-3.491-3.491-3.491s-3.491,1.611-3.491,3.491s1.611,3.491,3.491,3.491
			S506.782,570.401,506.782,568.253L506.782,568.253z"/>
		<g>
			<path fill="#3DB39E" d="M497.652,601.555v1.881c-1.074,0-2.149,0.537-2.954,1.074v-3.223c0-0.807-0.538-1.344-1.344-1.344
				s-1.343,0.537-1.343,1.344v10.474l0,0l0,0v5.103c0,0.806,0.537,1.343,1.343,1.343s1.344-0.537,1.344-1.343v-5.908
				c0.268-1.88,0.805-3.76,2.954-4.297v10.205c0,0.806,0.537,1.343,1.343,1.343s1.343-0.537,1.343-1.343v-10.205
				c1.611,0.537,2.686,2.417,2.686,4.834v4.297c0,0.806,0.537,1.343,1.343,1.343s1.343-0.537,1.343-1.343v-1.343l0,0v-2.417
				c0-2.686,1.343-3.76,4.297-4.565c2.417-0.537,3.76-0.806,4.834-1.343c0.806-0.269,2.148-0.806,2.954-1.343
				c0.27-0.269,0.537-0.806,0.537-1.074c0-0.537-0.269-0.806-0.537-1.074c-0.537-0.537-1.611-0.537-2.148,0l0,0
				c-0.806,0.537-3.223,1.074-6.445,1.88c-2.417,0.537-4.028,1.611-4.565,3.223c-0.806-1.88-2.148-3.491-4.028-4.028v-2.148
				c0-0.806-0.537-1.343-1.343-1.343C498.457,600.212,497.652,600.749,497.652,601.555L497.652,601.555z"/>
		</g>
	</g>
	<g>
		<path fill="#A61E22" d="M291.931,500.574h-34.108v180.745h34.108c48.072,0,87.283-38.942,87.283-87.284v-6.177
			C379.214,539.785,340.003,500.574,291.931,500.574z"/>
		<path fill="#E8AC86" d="M299.182,518.568c0,27.125-40.554,53.981-40.554,53.981s-40.553-26.856-40.553-53.713
			c0-27.125,17.456-34.107,40.553-34.107C281.725,484.461,299.182,491.443,299.182,518.568z"/>
		<path fill="#CF9A6B" d="M293.274,511.317c0,19.068-15.577,34.645-34.646,34.645l0,0c-19.068,0-34.645-15.576-34.645-34.645
			v-53.981c0-19.068,15.576-34.646,34.645-34.646l0,0c19.068,0,34.646,15.577,34.646,34.646V511.317z"/>
		<path fill="#C18B63" d="M258.628,422.959c-19.068,0-34.645,15.577-34.645,34.646v29.273c9.937,3.491,21.754,5.64,34.645,5.64
			c12.623,0,24.708-2.148,34.646-5.64v-29.273C293.274,438.268,277.697,422.959,258.628,422.959z"/>
		<circle fill="#F7B78F" cx="247.886" cy="354.744" r="128.106"/>
		<path fill="#475677" d="M379.214,594.035c0,48.073-38.942,87.284-87.283,87.284h-68.484c-48.073,0-87.284-38.942-87.284-87.284
			v-6.177c0-48.073,38.942-87.284,87.284-87.284h68.484c48.072,0,87.283,38.942,87.283,87.284V594.035z"/>
		<ellipse fill="#623412" cx="248.423" cy="354.744" rx="133.208" ry="131.06"/>
		<path fill="#CF9A6B" d="M381.363,354.744c0-16.114-2.954-31.423-8.325-45.656c-47.536,19.874-81.106,66.604-81.106,120.854
			c0,16.113,2.954,31.422,8.325,45.655C347.792,455.456,381.363,408.994,381.363,354.744z"/>
		<circle fill="#CF9A6B" cx="288.17" cy="429.942" r="31.691"/>
		<path opacity="0.5" fill="#353535" enable-background="new    " d="M261.851,545.693c0,0,12.892,74.124,94.804,106.89
			c0,0-5.103,5.371-12.354,11.279C335.706,670.845,263.731,632.44,261.851,545.693z"/>
		<path fill="#475677" d="M252.451,335.676l-134.82,9.668c-2.417-35.182,8.863-69.827,31.423-96.684
			c47.805-56.667,133.745-63.918,190.412-16.114c29.812,24.977,47.268,61.77,48.073,100.444L252.451,335.676z"/>
		
			<line fill="none" stroke="#475677" stroke-width="5" stroke-linecap="round" stroke-miterlimit="10" x1="379.751" y1="328.155" x2="439.641" y2="328.424"/>
		<g>
			<path fill="#3C4C66" d="M460.321,683.468c9.938,0,18.8-7.251,20.68-17.188c2.148-11.548-5.371-22.56-16.92-24.708
				c-157.647-29.005-160.064-100.175-160.064-100.712c0.269-11.548-8.862-21.485-20.411-21.754
				c-11.548-0.269-21.485,8.863-21.754,20.411c0,4.297-0.806,107.426,194.71,143.683
				C457.904,683.468,458.978,683.468,460.321,683.468z"/>
			<circle fill="#CF9A6B" cx="460.321" cy="662.52" r="21.754"/>
		</g>
	</g>
</g>
</svg>
