<?xml version="1.0" encoding="utf-8"?>
<!-- Generator: Adobe Illustrator 21.0.0, SVG Export Plug-In . SVG Version: 6.00 Build 0)  -->
<svg version="1.1" id="Layer_1" xmlns="http://www.w3.org/2000/svg" xmlns:xlink="http://www.w3.org/1999/xlink" x="0px" y="0px"
	 viewBox="0 0 213 213" style="enable-background:new 0 0 213 213;" xml:space="preserve">
<style type="text/css">
	.st0{fill-rule:evenodd;clip-rule:evenodd;fill:#FFFFFF;}
	.st1{fill-rule:evenodd;clip-rule:evenodd;fill:#2196F3;}
</style>
<path class="st1" d="M160.1,46.4c0.4,0.1,0.7,0.4,1.1,0.4c10.1-0.1,17.4,7.7,18.8,16.7c0.2,1.4,0.1,2.9,0,4.4c0,1-0.6,1.6-1.7,1.6
	c-4.9,0-9.8,0-14.8,0c-1,0-1.5-0.4-1.8-1.3c-1-3.3-3.5-4.6-7-4.6c-32,0-64.1,0-96.1,0c-1.2,0-2.5,0.2-3.6,0.5
	c-2.4,0.7-3.7,2.6-3.7,5.1c-0.1,23.7-0.2,47.4-0.2,71.1c0,1.7,0.1,3.5,0.3,5.2c0.2,2.5,2,4.2,4.5,4.5c1.4,0.2,2.8,0.3,4.2,0.3
	c31.6,0,63.3,0,94.9,0c1.7,0,3.6-0.3,5.2-0.9c2-0.7,2.8-2.5,2.9-4.4c0.1-14.4,0.2-28.8,0.3-43.3c0-1.8-0.1-3.6-0.3-5.4
	c-0.3-2.7-2.3-4.3-5.4-4.3c-4.8,0-9.6,0-14.4,0c-13.9,0-27.7,0-41.6,0c-2.1,0-2.5,0.4-2.5,2.6c0,1.8-0.7,2.3-2.5,2
	c-0.5-0.1-1-0.1-1.5,0c-1.2,0.2-2-0.2-2.3-1.4c-0.2-0.8-0.2-1.6-0.2-2.4c0-3.4,0-6.9,0-10.3c0-0.5,0-0.9,0-1.4
	c0.1-2,0.9-2.8,2.9-2.8c3.2,0,6.3,0,9.5,0c9.1,0,18.2,0,27.2,0c2.2,0,4.4,0.2,6.7,0.2c6.2,0,12.5-0.3,18.7-0.2
	c4.7,0.1,9.4,0.5,14.1,1.3c4.9,0.8,7.4,3.9,7.8,8.8c0.3,3.4,0.5,6.8,0.5,10.2c0.1,16.2,0.1,32.4,0,48.5c-0.1,6.3-2.4,11.7-7.6,15.6
	c-3.2,2.4-7,3.7-11,3.7c-36.5,0-73,0.1-109.4,0c-7.2,0-12.9-3.3-16.5-9.7c-1-1.9-1.4-4.1-2.1-6.1c-0.1-0.2-0.3-0.4-0.4-0.7
	c0-28.7,0-57.4,0-86.1c0.2-0.6,0.5-1.3,0.6-1.9c1.4-8,7.5-13.8,15.7-14.9c0.9-0.1,1.8-0.4,2.7-0.6C88,46.4,124,46.4,160.1,46.4z"/>
</svg>
