<?xml version="1.0" encoding="UTF-8"?>
<svg width="537px" height="574px" viewBox="0 0 537 574" version="1.1" xmlns="http://www.w3.org/2000/svg" xmlns:xlink="http://www.w3.org/1999/xlink">
    <!-- Generator: Sketch 40.1 (33804) - http://www.bohemiancoding.com/sketch -->
    <title>Header Illustration</title>
    <desc>Created with Sketch.</desc>
    <defs>
        <linearGradient x1="50%" y1="62.935622%" x2="50%" y2="135.174306%" id="linearGradient-1">
            <stop stop-color="#C2FBFF" stop-opacity="0" offset="0%"></stop>
            <stop stop-color="#8EF3FF" offset="100%"></stop>
        </linearGradient>
        <path d="M1.15737944,5.29250613 C0.669491051,3.82884097 1.53294073,2.64230591 3.06624587,2.64230591 L33.4477441,2.64230591 C34.9898703,2.64230591 35.8435788,3.83160135 35.3566106,5.29250613 L29.5516147,22.7074939 C29.0637263,24.171159 27.4125699,25.3576941 25.8600078,25.3576941 L10.6539822,25.3576941 C9.10305243,25.3576941 7.44934361,24.1683987 6.96237535,22.7074939 L1.15737944,5.29250613 Z" id="path-2"></path>
        <path d="M10.0586726,70 L19.8586726,79.8 L19.8586726,44.8 C19.8586726,30.887064 31.1448812,19.6 45.0464088,19.6 L88.4709364,19.6 C102.382622,19.6 113.658673,30.8790573 113.658673,44.8 L113.658673,79.8 L123.458673,70 L97.7650576,70 L97.7650576,89.6 L123.458673,89.6 L133.258673,89.6 L133.258673,79.8 L133.258673,44.8 C133.258673,20.0554457 113.208572,0 88.4709364,0 L45.0464088,0 C20.3197676,0 0.258672606,20.0626154 0.258672606,44.8 L0.258672606,79.8 L0.258672606,89.6 L10.0586726,89.6 L42.7079182,89.6 L42.7079182,70 L10.0586726,70 Z" id="path-4"></path>
        <path d="M30.24,60.48 C46.9410908,60.48 60.48,46.9410908 60.48,30.24 C60.48,13.5389092 46.9410908,0 30.24,0 C13.5389092,0 0,13.5389092 0,30.24 C0,46.9410908 13.5389092,60.48 30.24,60.48 Z" id="path-6"></path>
        <rect id="path-8" x="0.00189621089" y="0.110335095" width="166.32" height="164.728552" rx="82.3642761"></rect>
        <linearGradient x1="-22.3967154%" y1="131.373979%" x2="78.5441191%" y2="69.7678508%" id="linearGradient-10">
            <stop stop-color="#FFEBD0" offset="0%"></stop>
            <stop stop-color="#FFDBB3" offset="100%"></stop>
        </linearGradient>
        <path d="M0.668202862,87.1995463 C0.668202862,38.7716015 39.9102577,0.228060408 88.3589354,0.228060408 L90.0448571,0.228060408 C138.475111,0.228060408 191.480952,47.3266807 172.663471,127.814288 C172.663471,127.814288 112.642474,127.225535 45.010759,64.152277 C27.2964855,95.9616502 0.668202862,87.9146089 0.668202862,87.9146112 L0.668202862,87.1995463 Z" id="path-11"></path>
        <filter x="-50%" y="-50%" width="200%" height="200%" filterUnits="objectBoundingBox" id="filter-13">
            <feMorphology radius="1.5" operator="dilate" in="SourceAlpha" result="shadowSpreadOuter1"></feMorphology>
            <feOffset dx="0" dy="3" in="shadowSpreadOuter1" result="shadowOffsetOuter1"></feOffset>
            <feGaussianBlur stdDeviation="10" in="shadowOffsetOuter1" result="shadowBlurOuter1"></feGaussianBlur>
            <feComposite in="shadowBlurOuter1" in2="SourceAlpha" operator="out" result="shadowBlurOuter1"></feComposite>
            <feColorMatrix values="0 0 0 0 0   0 0 0 0 0   0 0 0 0 0  0 0 0 0.171620245 0" type="matrix" in="shadowBlurOuter1" result="shadowMatrixOuter1"></feColorMatrix>
            <feMerge>
                <feMergeNode in="shadowMatrixOuter1"></feMergeNode>
                <feMergeNode in="SourceGraphic"></feMergeNode>
            </feMerge>
        </filter>
        <circle id="path-14" cx="73.6" cy="73.6" r="73"></circle>
        <rect id="path-16" x="0.46809036" y="0.0515490464" width="77.7054428" height="76.9619113" rx="38.4809557"></rect>
        <linearGradient x1="110.16874%" y1="-9.38368489%" x2="50%" y2="78.8720479%" id="linearGradient-18">
            <stop stop-color="#FFEBD0" offset="0%"></stop>
            <stop stop-color="#FFDBB3" offset="100%"></stop>
        </linearGradient>
        <path d="M0.265215306,36.6306075 C0.265215306,36.6306075 28.8633277,56.9566981 66.8345123,36.4648673 C84.4696144,26.3130435 73.2292558,7.01056855 73.2292558,7.01056855 C73.2292558,7.01056855 73.0460229,16.9316664 68.574366,16.9316661 C68.574366,16.9316661 69.0749203,7.67269676 60.3439888,0.126932787 C60.3439888,0.126932787 53.6769015,10.9250379 43.6133827,10.9250377 C33.549864,10.9250374 9.67243439,7.69768145 3.12527643,25.9024633 C0.265215306,35.316344 0.265215306,36.6306075 0.265215306,36.6306075 Z" id="path-19"></path>
        <path d="M10.2658011,0.392371988 C15.0372102,0.392371988 13.1303563,21.3868807 5.99245117,26.8049658 L2.53513734,26.1087387 C2.53513734,26.1087387 -4.58810623,3.83305583 6.69903605,0.448028994 C6.69903605,0.448028994 5.49439209,0.392371988 10.2658011,0.392371988 Z" id="path-21"></path>
        <filter x="-50%" y="-50%" width="200%" height="200%" filterUnits="objectBoundingBox" id="filter-23">
            <feMorphology radius="1.5" operator="dilate" in="SourceAlpha" result="shadowSpreadOuter1"></feMorphology>
            <feOffset dx="0" dy="3" in="shadowSpreadOuter1" result="shadowOffsetOuter1"></feOffset>
            <feGaussianBlur stdDeviation="10" in="shadowOffsetOuter1" result="shadowBlurOuter1"></feGaussianBlur>
            <feComposite in="shadowBlurOuter1" in2="SourceAlpha" operator="out" result="shadowBlurOuter1"></feComposite>
            <feColorMatrix values="0 0 0 0 0   0 0 0 0 0   0 0 0 0 0  0 0 0 0.171620245 0" type="matrix" in="shadowBlurOuter1" result="shadowMatrixOuter1"></feColorMatrix>
            <feMerge>
                <feMergeNode in="shadowMatrixOuter1"></feMergeNode>
                <feMergeNode in="SourceGraphic"></feMergeNode>
            </feMerge>
        </filter>
        <path d="M73.6,146.6 C113.916787,146.6 146.6,113.916787 146.6,73.6 C146.6,33.2832133 113.916787,0.6 73.6,0.6 C33.2832133,0.6 0.6,33.2832133 0.6,73.6 C0.6,113.916787 33.2832133,146.6 73.6,146.6 Z" id="path-24"></path>
        <rect id="path-26" x="0.46809036" y="0.0515490464" width="77.7054428" height="76.9619113" rx="38.4809557"></rect>
        <linearGradient x1="110.16874%" y1="-9.38368489%" x2="50%" y2="78.8720479%" id="linearGradient-28">
            <stop stop-color="#F2C1B2" offset="0%"></stop>
            <stop stop-color="#E7AE9D" offset="100%"></stop>
        </linearGradient>
        <filter x="-50%" y="-50%" width="200%" height="200%" filterUnits="objectBoundingBox" id="filter-29">
            <feMorphology radius="1.5" operator="dilate" in="SourceAlpha" result="shadowSpreadOuter1"></feMorphology>
            <feOffset dx="0" dy="3" in="shadowSpreadOuter1" result="shadowOffsetOuter1"></feOffset>
            <feGaussianBlur stdDeviation="10" in="shadowOffsetOuter1" result="shadowBlurOuter1"></feGaussianBlur>
            <feComposite in="shadowBlurOuter1" in2="SourceAlpha" operator="out" result="shadowBlurOuter1"></feComposite>
            <feColorMatrix values="0 0 0 0 0   0 0 0 0 0   0 0 0 0 0  0 0 0 0.171620245 0" type="matrix" in="shadowBlurOuter1" result="shadowMatrixOuter1"></feColorMatrix>
            <feMerge>
                <feMergeNode in="shadowMatrixOuter1"></feMergeNode>
                <feMergeNode in="SourceGraphic"></feMergeNode>
            </feMerge>
        </filter>
        <filter x="-50%" y="-50%" width="200%" height="200%" filterUnits="objectBoundingBox" id="filter-30">
            <feMorphology radius="1.5" operator="dilate" in="SourceAlpha" result="shadowSpreadOuter1"></feMorphology>
            <feOffset dx="0" dy="3" in="shadowSpreadOuter1" result="shadowOffsetOuter1"></feOffset>
            <feGaussianBlur stdDeviation="10" in="shadowOffsetOuter1" result="shadowBlurOuter1"></feGaussianBlur>
            <feComposite in="shadowBlurOuter1" in2="SourceAlpha" operator="out" result="shadowBlurOuter1"></feComposite>
            <feColorMatrix values="0 0 0 0 0   0 0 0 0 0   0 0 0 0 0  0 0 0 0.171620245 0" type="matrix" in="shadowBlurOuter1" result="shadowMatrixOuter1"></feColorMatrix>
            <feMerge>
                <feMergeNode in="shadowMatrixOuter1"></feMergeNode>
                <feMergeNode in="SourceGraphic"></feMergeNode>
            </feMerge>
        </filter>
        <filter x="-50%" y="-50%" width="200%" height="200%" filterUnits="objectBoundingBox" id="filter-31">
            <feMorphology radius="1.5" operator="dilate" in="SourceAlpha" result="shadowSpreadOuter1"></feMorphology>
            <feOffset dx="0" dy="3" in="shadowSpreadOuter1" result="shadowOffsetOuter1"></feOffset>
            <feGaussianBlur stdDeviation="10" in="shadowOffsetOuter1" result="shadowBlurOuter1"></feGaussianBlur>
            <feComposite in="shadowBlurOuter1" in2="SourceAlpha" operator="out" result="shadowBlurOuter1"></feComposite>
            <feColorMatrix values="0 0 0 0 0   0 0 0 0 0   0 0 0 0 0  0 0 0 0.171620245 0" type="matrix" in="shadowBlurOuter1" result="shadowMatrixOuter1"></feColorMatrix>
            <feMerge>
                <feMergeNode in="shadowMatrixOuter1"></feMergeNode>
                <feMergeNode in="SourceGraphic"></feMergeNode>
            </feMerge>
        </filter>
        <filter x="-50%" y="-50%" width="200%" height="200%" filterUnits="objectBoundingBox" id="filter-32">
            <feMorphology radius="1.5" operator="dilate" in="SourceAlpha" result="shadowSpreadOuter1"></feMorphology>
            <feOffset dx="0" dy="3" in="shadowSpreadOuter1" result="shadowOffsetOuter1"></feOffset>
            <feGaussianBlur stdDeviation="10" in="shadowOffsetOuter1" result="shadowBlurOuter1"></feGaussianBlur>
            <feComposite in="shadowBlurOuter1" in2="SourceAlpha" operator="out" result="shadowBlurOuter1"></feComposite>
            <feColorMatrix values="0 0 0 0 0   0 0 0 0 0   0 0 0 0 0  0 0 0 0.171620245 0" type="matrix" in="shadowBlurOuter1" result="shadowMatrixOuter1"></feColorMatrix>
            <feMerge>
                <feMergeNode in="shadowMatrixOuter1"></feMergeNode>
                <feMergeNode in="SourceGraphic"></feMergeNode>
            </feMerge>
        </filter>
    </defs>
    <g id="Crugo-Design" stroke="none" stroke-width="1" fill="none" fill-rule="evenodd">
        <g id="Landing-Page" transform="translate(-828.000000, -261.000000)">
            <g id="Header" transform="translate(106.000000, -19.000000)">
                <g id="Header-Illustration" transform="translate(722.000000, 296.000000)">
                    <g id="people" transform="translate(166.400000, 111.000000)">
                        <rect id="Rectangle-49" fill="#FF8080" x="38.0586726" y="182" width="113.4" height="98" rx="49"></rect>
                        <rect id="Rectangle-54" fill="url(#linearGradient-1)" x="81.2" y="188.297716" width="30.8" height="51.8"></rect>
                        <circle id="Oval-23" fill="#F3C090" cx="81.2" cy="253.4" r="9.8"></circle>
                        <circle id="Oval-23-Copy" fill="#F3C090" cx="114.8" cy="253.4" r="9.8"></circle>
                        <g id="Group-16" transform="translate(78.400000, 236.600000)">
                            <path d="M0.910057636,3.12805346 C0.910057636,1.58650534 2.16532735,0.33683367 3.71981515,0.33683367 L32.7941748,0.33683367 C34.3459611,0.33683367 35.6039321,1.58581082 35.6039319,3.12805346 L35.6039317,3.86737797 C35.6039315,5.40892609 34.3486616,6.65859776 32.7941738,6.65859776 L3.71981506,6.65859776 C2.16802888,6.65859776 0.910057636,5.40962061 0.910057636,3.86737797 L0.910057636,3.12805346 Z" id="Rectangle-51-Copy" fill="#E7F1F6"></path>
                            <mask id="mask-3" fill="white">
                                <use xlink:href="#path-2"></use>
                            </mask>
                            <use id="Rectangle-51" fill="#FFFFFF" xlink:href="#path-2"></use>
                            <path d="M0.7,7.42 L37.1,7.42" id="Line" stroke="#CCDDE5" stroke-width="0.84" stroke-linecap="square" mask="url(#mask-3)"></path>
                            <path d="M0.7,22.82 L37.1,22.82" id="Line-Copy-3" stroke="#CCDDE5" stroke-width="0.84" stroke-linecap="square" mask="url(#mask-3)"></path>
                            <ellipse id="Oval-22" fill="#5E689A" mask="url(#mask-3)" cx="28" cy="7" rx="2.8" ry="1.4"></ellipse>
                        </g>
                        <g id="hand" transform="translate(60.200000, 249.200000)">
                            <rect id="Rectangle-52" fill="#FFDBB3" x="0" y="0" width="33.6" height="16.8" rx="2.8"></rect>
                            <rect id="Rectangle-53" fill="#FFD2A9" x="12.6" y="0" width="14" height="16.8"></rect>
                        </g>
                        <g id="hand-copy" transform="translate(117.400000, 257.700000) scale(-1, 1) translate(-117.400000, -257.700000) translate(100.400000, 249.200000)">
                            <rect id="Rectangle-52" fill="#FFDBB3" x="-8.52651283e-14" y="0" width="33.6" height="16.8" rx="2.8"></rect>
                            <rect id="Rectangle-53" fill="#FFD2A9" x="12.6" y="0" width="14" height="16.8"></rect>
                        </g>
                        <g id="Group-18" transform="translate(28.000000, 177.800000)">
                            <mask id="mask-5" fill="white">
                                <use xlink:href="#path-4"></use>
                            </mask>
                            <use id="Rectangle-49-Copy" fill="#F7ADAD" xlink:href="#path-4"></use>
                            <path d="M134.658673,93.8 L144.458673,93.8 L144.458673,84 L144.458673,49 C144.458673,24.2554457 124.408572,4.2 99.6709364,4.2 L56.2464088,4.2 C31.5197676,4.2 11.4586726,24.2626154 11.4586726,49 L11.4586726,84 L11.4586726,93.8 L21.2586726,93.8 L134.658673,93.8 Z" id="Rectangle-49-Copy-2" fill="#FF9A9A" mask="url(#mask-5)"></path>
                        </g>
                        <g id="neck" transform="translate(77.000000, 169.400000)">
                            <path d="M15.9024944,30.9085253 L3.47314684,41.8428102 C3.47314684,41.8428102 -3.36351113,28.1929865 2.30676847,18.3972116 C7.97704806,8.60143664 15.9024944,30.9085253 15.9024944,30.9085253 Z" id="Path-22" fill="#FFFFFF"></path>
                            <path d="M35.5024944,30.9085253 L23.0731468,41.8428102 C23.0731468,41.8428102 16.2364889,28.1929865 21.9067685,18.3972116 C27.5770481,8.60143664 35.5024944,30.9085253 35.5024944,30.9085253 Z" id="Path-22-Copy" fill="#FFFFFF" transform="translate(27.579823, 28.876691) scale(-1, 1) translate(-27.579823, -28.876691) "></path>
                            <rect id="Rectangle-50" fill="#FFC19B" x="4.80745206" y="0.623092042" width="25.9024411" height="36.0217726" rx="12.9512205"></rect>
                        </g>
                        <g id="head" transform="translate(0.000000, 0.433978)">
                            <g id="ear" transform="translate(0.000000, 104.160000)">
                                <circle id="Oval-18" fill="#F3BB8B" cx="17.64" cy="17.64" r="17.64"></circle>
                                <circle id="Oval-21" fill="#FFD458" cx="14.28" cy="31.08" r="2.52"></circle>
                            </g>
                            <g id="ikatan" transform="translate(65.520000, 0.000000)">
                                <mask id="mask-7" fill="white">
                                    <use xlink:href="#path-6"></use>
                                </mask>
                                <use id="Oval-20" fill="#483232" xlink:href="#path-6"></use>
                                <path d="M47.04,60.48 C63.7410908,60.48 77.28,46.9410908 77.28,30.24 C77.28,13.5389092 63.7410908,0 47.04,0 C30.3389092,0 16.8,13.5389092 16.8,30.24 C16.8,46.9410908 30.3389092,60.48 47.04,60.48 Z" id="Oval-20-Copy-2" fill="#362323" mask="url(#mask-7)"></path>
                            </g>
                            <circle id="ikat" fill="#FFD458" cx="95.76" cy="48.72" r="30.24"></circle>
                            <g transform="translate(14.440000, 28.280000)">
                                <mask id="mask-9" fill="white">
                                    <use xlink:href="#path-8"></use>
                                </mask>
                                <use id="Rectangle-48" fill="#FDD5A7" xlink:href="#path-8"></use>
                                <rect id="Rectangle-48-Copy" fill="url(#linearGradient-10)" mask="url(#mask-9)" x="13.6969616" y="12.4950315" width="138.929869" height="150.03916" rx="69.4649346"></rect>
                                <path d="M-5.37179714,86.7995463 C-5.37179714,38.3716015 33.8702577,-0.171939592 82.3189354,-0.171939592 L84.0048571,-0.171939592 C132.435111,-0.171939592 180.812268,62.0480522 161.994787,142.53566 C161.994787,142.53566 91.0864872,130.988877 38.970759,63.752277 C21.2564855,95.5616502 -16.2598244,77.9603563 -16.2598244,77.9603587 L-5.37179714,86.7995463 Z" id="Combined-Shape" fill="#000000" opacity="0.0599999987" mask="url(#mask-9)"></path>
                            </g>
                            <g id="hair" transform="translate(8.400000, 22.840000)">
                                <mask id="mask-12" fill="white">
                                    <use xlink:href="#path-11"></use>
                                </mask>
                                <use id="Combined-Shape-Copy-4" fill="#776262" xlink:href="#path-11"></use>
                                <path d="M17.4682029,100.639546 C17.4682029,52.2116015 56.7102577,13.6680604 105.158935,13.6680604 L106.844857,13.6680604 C155.275111,13.6680604 208.280952,60.7666807 189.463471,141.254288 C189.463471,141.254288 129.442474,140.665535 61.810759,77.592277 C44.0964855,109.40165 17.4682029,101.354609 17.4682029,101.354611 L17.4682029,100.639546 Z" id="Combined-Shape-Copy-5" fill="#584545" mask="url(#mask-12)"></path>
                            </g>
                            <g id="face" transform="translate(60.760000, 135.520000)">
                                <circle id="Oval-19" fill="#584545" cx="5.88" cy="5.88" r="5.88"></circle>
                                <circle id="Oval-19-Copy" fill="#584545" cx="61.32" cy="5.88" r="5.88"></circle>
                                <path d="M27.5933048,17.2343217 C27.5933048,17.2343217 28.4862583,22.842588 34.3560836,22.8425884 C40.2259089,22.8425887 41.1188624,17.2343217 41.1188624,17.2343217" id="Path-19" stroke="#FF8C8C" stroke-width="5.04" stroke-linecap="round" stroke-linejoin="round"></path>
                            </g>
                        </g>
                    </g>
                    <g id="laptop" transform="translate(190.200000, 298.600000)">
                        <rect id="Rectangle-60" fill="#E5EDF5" x="4.2" y="0.386920137" width="133" height="78.0130799" rx="7"></rect>
                        <circle id="Oval-24" fill="#C7C3E5" cx="71.4" cy="39.2" r="8.4"></circle>
                        <circle id="Oval-24-Copy" fill="#C7C3E5" cx="79.9569089" cy="29.2430911" r="2.95690891"></circle>
                        <rect id="Rectangle-60-Copy" fill="#DCE3EA" x="0.82572329" y="71.4182011" width="139.748553" height="6.98179894" rx="3.49089947"></rect>
                    </g>
                    <rect id="Rectangle-58" fill="#7F99DF" x="18.1841354" y="382.529854" width="500.685173" height="44.7887101" rx="5"></rect>
                    <rect id="Rectangle-58-Copy" fill="#96ACE8" x="0.0534433971" y="376.529854" width="536.946557" height="16" rx="5"></rect>
                    <g id="people" filter="url(#filter-13)" transform="translate(370.000000, 196.974383)">
                        <mask id="mask-15" fill="white">
                            <use xlink:href="#path-14"></use>
                        </mask>
                        <use id="Oval-30" fill="#52D0E3" xlink:href="#path-14"></use>
                        <circle id="Oval-32" fill="#7CDCFF" mask="url(#mask-15)" cx="108.168882" cy="-5.83111759" r="70.1688824"></circle>
                        <circle id="Oval-32-Copy" fill="#7CDCFF" mask="url(#mask-15)" cx="-3.55503193" cy="97.4449681" r="25.2060399"></circle>
                        <rect id="Rectangle-62" fill="#445173" mask="url(#mask-15)" x="40" y="108" width="66" height="73" rx="19"></rect>
                        <rect id="Rectangle-63" fill="#486D9D" mask="url(#mask-15)" x="40" y="126" width="15" height="66" rx="7.5"></rect>
                        <rect id="Rectangle-63-Copy" fill="#486D9D" mask="url(#mask-15)" x="91" y="126" width="15" height="66" rx="7.5"></rect>
                        <circle id="Oval-31" fill="#DAB48A" mask="url(#mask-15)" cx="73" cy="115" r="9"></circle>
                        <g id="head" mask="url(#mask-15)">
                            <g transform="translate(28.003266, 24.274986)">
                                <g id="ear" stroke-width="1" fill="none" transform="translate(0.000000, 52.664015)">
                                    <circle id="Oval-18" fill="#F3BB8B" cx="8.24148636" cy="8.24148636" r="8.24148636"></circle>
                                    <circle id="Oval-18-Copy" fill="#F3BB8B" cx="83.2414864" cy="8.24148636" r="8.24148636"></circle>
                                </g>
                                <g id="head" stroke-width="1" fill="none" transform="translate(6.279228, 17.212542)">
                                    <mask id="mask-17" fill="white">
                                        <use xlink:href="#path-16"></use>
                                    </mask>
                                    <use id="Rectangle-48" fill="#FDD5A7" xlink:href="#path-16"></use>
                                    <rect id="Rectangle-48-Copy" fill="url(#linearGradient-18)" mask="url(#mask-17)" x="6.86648572" y="5.83773421" width="64.908652" height="70.0989618" rx="32.454326"></rect>
                                    <path d="M21.2588213,67.4760733 C21.2588213,58.1073351 28.8494236,50.5124722 38.2175058,50.5124722 C47.5835287,50.5124722 55.1761904,58.1067423 55.1761904,67.4760733 L55.1761904,73.5488711 C55.1761904,82.9176093 47.585588,90.5124722 38.2175058,90.5124722 C28.851483,90.5124722 21.2588213,82.9182021 21.2588213,73.5488711 L21.2588213,67.4760733 Z M30.8420112,56.2396212 C30.8420112,53.9448541 32.7102342,52.0845778 34.9902392,52.0845778 L41.4447725,52.0845778 C43.7357756,52.0845778 45.5930005,53.9495235 45.5930005,56.2396212 C45.5930005,58.5343882 43.7247775,60.3946645 41.4447725,60.3946645 L34.9902392,60.3946645 C32.6992361,60.3946645 30.8420112,58.5297188 30.8420112,56.2396212 Z" id="Combined-Shape" fill="#000000" opacity="0.0500000007" mask="url(#mask-17)"></path>
                                </g>
                                <g id="face" stroke-width="1" fill="none" transform="translate(28.387342, 59.315546)">
                                    <ellipse id="Oval-19" fill="#584545" cx="2.74716212" cy="2.74716212" rx="2.74716212" ry="2.74716212"></ellipse>
                                    <ellipse id="Oval-19-Copy" fill="#584545" cx="28.6489764" cy="2.74716212" rx="2.74716212" ry="2.74716212"></ellipse>
                                    <path d="M10.5824174,11.4662742 L21.0741036,11.4662742 C21.0741036,11.4662742 20.2787017,15.4043786 15.8282604,15.4043788 C11.377819,15.4043791 10.5824174,11.4662742 10.5824174,11.4662742 Z" id="Path-27" fill="#E37A7A"></path>
                                </g>
                                <g id="Group-24" stroke-width="1" fill="none" transform="translate(12.000000, 0.000000)">
                                    <mask id="mask-20" fill="white">
                                        <use xlink:href="#path-19"></use>
                                    </mask>
                                    <use id="Path-36" fill="#776262" xlink:href="#path-19"></use>
                                    <path d="M9.26521531,38.6306075 C9.26521531,38.6306075 37.8633277,58.9566981 75.8345123,38.4648673 C93.4696144,28.3130435 82.2292558,9.01056855 82.2292558,9.01056855 C82.2292558,9.01056855 82.0460229,18.9316664 77.574366,18.9316661 C77.574366,18.9316661 78.0749203,9.67269676 69.3439888,2.12693279 C69.3439888,2.12693279 62.6769015,12.9250379 52.6133827,12.9250377 C42.549864,12.9250374 18.6724344,9.69768145 12.1252764,27.9024633 C9.26521531,37.316344 9.26521531,38.6306075 9.26521531,38.6306075 Z" id="Path-36-Copy" fill="#584545" mask="url(#mask-20)"></path>
                                </g>
                                <g id="Group-25" stroke-width="1" fill="none" transform="translate(5.000000, 35.000000)">
                                    <mask id="mask-22" fill="white">
                                        <use xlink:href="#path-21"></use>
                                    </mask>
                                    <use id="Path-37" fill="#776262" xlink:href="#path-21"></use>
                                    <path d="M13.2658011,3.39237199 C18.0372102,3.39237199 16.1303563,24.3868807 8.99245117,29.8049658 L5.53513734,29.1087387 C5.53513734,29.1087387 -1.58810623,6.83305583 9.69903605,3.44802899 C9.69903605,3.44802899 8.49439209,3.39237199 13.2658011,3.39237199 Z" id="Path-37-Copy-2" fill="#584545" mask="url(#mask-22)"></path>
                                </g>
                                <path d="M83.8977012,35.392372 C88.6691103,35.392372 86.7622564,56.3868807 79.6243513,61.8049658 L76.1670374,61.1087387 C76.1670374,61.1087387 69.0520486,39.2755555 80.3309362,35.448029 C80.3309362,35.448029 79.1262922,35.392372 83.8977012,35.392372 Z" id="Path-37-Copy" fill="#584545" transform="translate(80.238761, 48.598669) scale(-1, 1) translate(-80.238761, -48.598669) "></path>
                            </g>
                        </g>
                    </g>
                    <g id="people-copy" filter="url(#filter-23)" transform="translate(51.000000, 338.500000)">
                        <mask id="mask-25" fill="white">
                            <use xlink:href="#path-24"></use>
                        </mask>
                        <use id="Oval-30" fill="#FFD677" xlink:href="#path-24"></use>
                        <rect id="Rectangle-64" fill="#614E4E" mask="url(#mask-25)" x="33" y="74" width="82" height="52" rx="19"></rect>
                        <path d="M108.168882,64.3377648 C146.922086,64.3377648 178.337765,32.9220861 178.337765,-5.83111759 C178.337765,-44.5843213 146.922086,-76 108.168882,-76 C69.4156787,-76 38,-44.5843213 38,-5.83111759 C38,32.9220861 69.4156787,64.3377648 108.168882,64.3377648 Z" id="Oval-32" fill="#FFC76A" mask="url(#mask-25)"></path>
                        <circle id="Oval-32-Copy" fill="#FFC76A" mask="url(#mask-25)" cx="-3.55503193" cy="97.4449681" r="25.2060399"></circle>
                        <rect id="Rectangle-62" fill="#5CD0FF" mask="url(#mask-25)" x="40" y="108" width="66" height="73" rx="19"></rect>
                        <rect id="Rectangle-63" fill="#E7AFA0" mask="url(#mask-25)" x="40" y="126" width="15" height="66" rx="7.5"></rect>
                        <rect id="Rectangle-63-Copy" fill="#E7AFA0" mask="url(#mask-25)" x="91" y="126" width="15" height="66" rx="7.5"></rect>
                        <circle id="Oval-31" fill="#C69181" mask="url(#mask-25)" cx="73" cy="115" r="9"></circle>
                        <g id="head" mask="url(#mask-25)">
                            <g transform="translate(28.003266, 41.274986)">
                                <g id="ear" transform="translate(0.000000, 35.664015)">
                                    <circle id="Oval-18" fill="#C69181" cx="8.24148636" cy="8.24148636" r="8.24148636"></circle>
                                    <circle id="Oval-18-Copy" fill="#C69181" cx="83.2414864" cy="8.24148636" r="8.24148636"></circle>
                                </g>
                                <g id="head" transform="translate(6.279228, 0.212542)">
                                    <mask id="mask-27" fill="white">
                                        <use xlink:href="#path-26"></use>
                                    </mask>
                                    <use id="Rectangle-48" fill="#E0A595" xlink:href="#path-26"></use>
                                    <rect id="Rectangle-48-Copy" fill="url(#linearGradient-28)" mask="url(#mask-27)" x="6.86648572" y="5.83773421" width="64.908652" height="70.0989618" rx="32.454326"></rect>
                                    <path d="M48.3365108,42.5130643 C48.3365108,42.5130643 47.9058564,45.7210305 50.6345282,45.7210306 C53.3631999,45.7210308 52.9325453,42.5130643 52.9325453,42.5130643" id="Path-19" stroke="#794848" stroke-width="2" stroke-linecap="round" stroke-linejoin="round" mask="url(#mask-27)" transform="translate(50.634528, 44.117047) rotate(-180.000000) translate(-50.634528, -44.117047) "></path>
                                    <path d="M24.3365108,42.5130643 C24.3365108,42.5130643 23.9058564,45.7210305 26.6345282,45.7210306 C29.3631999,45.7210308 28.9325453,42.5130643 28.9325453,42.5130643" id="Path-19-Copy" stroke="#794848" stroke-width="2" stroke-linecap="round" stroke-linejoin="round" mask="url(#mask-27)" transform="translate(26.634528, 44.117047) rotate(-180.000000) translate(-26.634528, -44.117047) "></path>
                                    <circle id="Oval-34" fill="#FFACAC" opacity="0.221840019" mask="url(#mask-27)" cx="64" cy="52" r="5"></circle>
                                    <circle id="Oval-34-Copy" fill="#FFACAC" opacity="0.221840019" mask="url(#mask-27)" cx="14" cy="52" r="5"></circle>
                                </g>
                                <g id="face" transform="translate(38.387342, 53.315546)">
                                    <path d="M0.582417424,0.466274196 L11.0741036,0.466274196 C11.0741036,0.466274196 10.2787017,4.40437859 5.82826036,4.40437883 C1.377819,4.40437906 0.582417424,0.466274196 0.582417424,0.466274196 Z" id="Path-27" fill="#FF5A5A"></path>
                                </g>
                            </g>
                        </g>
                        <path d="M74,69.0988462 C90.802784,83.0923994 115,75.9452665 115,75.9452665 C115,53.3015918 96.6436747,34.9452665 74,34.9452665 C51.3563253,34.9452665 33,53.3015918 33,75.9452665 C33,75.9452665 55.808012,84.6962507 74,69.0988462 Z" id="Oval-33" fill="#584545" mask="url(#mask-25)"></path>
                        <path d="M113.490973,76.3230948 C110.928724,56.7496799 94.1859694,41.6375351 73.9135846,41.6375351 C53.6411998,41.6375351 36.8984456,56.7496799 34.3361964,76.3230948 C38.531981,58.3467414 54.6590684,44.9566275 73.9135846,44.9566275 C93.1681007,44.9566275 109.295188,58.3467414 113.490973,76.3230948 L113.490973,76.3230948 Z" id="Combined-Shape-Copy-3" fill="#776262" mask="url(#mask-25)"></path>
                        <path d="M113.490973,73.3230948 C110.928724,53.7496799 94.1859694,38.6375351 73.9135846,38.6375351 C53.6411998,38.6375351 36.8984456,53.7496799 34.3361964,73.3230948 C38.531981,55.3467414 54.6590684,41.9566275 73.9135846,41.9566275 C93.1681007,41.9566275 109.295188,55.3467414 113.490973,73.3230948 L113.490973,73.3230948 Z" id="Combined-Shape" fill="#FF64B9" mask="url(#mask-25)"></path>
                    </g>
                    <g id="Group-26" filter="url(#filter-29)" transform="translate(294.000000, 435.000000)">
                        <circle id="Oval-35" fill="#FF7B86" cx="50" cy="50.5" r="50"></circle>
                        <g id="Group-11" transform="translate(29.000000, 32.000000)">
                            <path d="M43,24.2588802 L43,27.9971924 C43,31.3124515 40.3090681,34 37.0099912,34 L19.7400745,34 L8.49424648,40.5272369 L8.49424635,34 L5.99163472,34 C2.68254624,34 0,31.3178833 0,27.9997475 L0,6.00025246 L0,6.00025246 C0,2.68640453 2.68522877,0 5.99839403,0 L17.4299326,0" id="Rectangle-65" stroke="#FFFFFF" stroke-width="5" stroke-linecap="round" stroke-linejoin="round"></path>
                            <path d="M27.0967377,0 L36.9989909,0 C40.3132567,0 43,2.67821007 43,5.99400818 L43,14.7891863" id="Rectangle-65-Copy" stroke="#FFFFFF" stroke-width="5" stroke-linecap="round" stroke-linejoin="round" opacity="0.590951493"></path>
                            <path d="M15,21 C16.6568542,21 18,19.6568542 18,18 C18,16.3431458 16.6568542,15 15,15 C13.3431458,15 12,16.3431458 12,18 C12,19.6568542 13.3431458,21 15,21 Z" id="Oval-36" fill="#FFFFFF"></path>
                            <circle id="Oval-36-Copy" fill="#FFFFFF" cx="28" cy="18" r="3"></circle>
                        </g>
                    </g>
                    <g id="Group-26-Copy" filter="url(#filter-30)" transform="translate(367.000000, 59.359559)">
                        <ellipse id="Oval-35" fill="#8CE097" cx="41.4178544" cy="41.832033" rx="41.4178544" ry="41.4178544"></ellipse>
                        <rect id="Rectangle-66" stroke="#FFFFFF" stroke-width="4" stroke-linecap="round" stroke-linejoin="round" x="26" y="37.6767449" width="30.8627172" height="21.3232551"></rect>
                        <path d="M35,50.6404405 C36.6568542,50.6404405 38,49.2972948 38,47.6404405 C38,45.9835863 36.6568542,44.6404405 35,44.6404405 C33.3431458,44.6404405 32,45.9835863 32,47.6404405 C32,49.2972948 33.3431458,50.6404405 35,50.6404405 Z" id="Oval-36" fill="#FFFFFF"></path>
                        <circle id="Oval-36-Copy" fill="#FFFFFF" cx="48" cy="47.6404405" r="3"></circle>
                        <path d="M26.5,29.1404405 L56.5,29.1404405" id="Line" stroke="#FFFFFF" stroke-width="5" stroke-linecap="round" stroke-linejoin="round" opacity="0.590951493"></path>
                        <path d="M31.5,25.1404405 L31.5,29.263546" id="Line" stroke="#FFFFFF" stroke-width="5" stroke-linecap="round" stroke-linejoin="round" opacity="0.590951493"></path>
                        <path d="M52.5,25.1404405 L52.5,29.263546" id="Line-Copy-4" stroke="#FFFFFF" stroke-width="5" stroke-linecap="round" stroke-linejoin="round" opacity="0.590951493"></path>
                    </g>
                    <g id="Group-26-Copy-2" filter="url(#filter-31)" transform="translate(26.770660, 185.434017)">
                        <ellipse id="Oval-35" fill="#A88EFF" cx="41.4178544" cy="41.832033" rx="41.4178544" ry="41.4178544"></ellipse>
                        <path d="M49.477105,56.9051524 L29.7252309,56.9051524 C27.5116488,56.9051524 25.7380524,55.1202931 25.76389,52.9102093 L26.0208254,30.9325894 C26.0466193,28.7262433 27.864755,26.9376464 30.0746627,26.9376464 L37.3887529,26.9376464 L43.8796328,31.9376464 L54.8425922,31.9376464" id="Rectangle-67" stroke="#FFFFFF" stroke-width="4" stroke-linecap="round" stroke-linejoin="round" opacity="0.590951493"></path>
                        <path d="M32.1500012,42.5736393 C33.0727015,40.5655359 35.6095641,38.9376464 37.8183378,38.9376464 L61.0118647,38.9376464 C63.2197002,38.9376464 64.2622911,40.5638323 63.338808,42.5736393 L58.4243406,53.2691595 C57.5016403,55.2772629 54.9647777,56.9051524 52.756004,56.9051524 L29.5624772,56.9051524 C27.3546416,56.9051524 26.3120508,55.2789665 27.2355338,53.2691595 L32.1500012,42.5736393 Z" id="Rectangle-67-Copy" stroke="#FFFFFF" stroke-width="4" stroke-linecap="round" stroke-linejoin="round"></path>
                    </g>
                    <g id="Group-26-Copy-3" filter="url(#filter-32)" transform="translate(164.000000, 0.000000)">
                        <path d="M41.4178544,83.2498874 C43.391021,83.2498874 45.3319607,83.1119076 47.2315511,82.8450702 C49.8409072,82.4785313 57.1278034,88.1188035 59.5574722,87.2896287 C62.9681586,86.1256613 61.4229449,78.2792133 64.3675497,76.3155918 C75.5011857,68.891082 82.8357089,56.2180923 82.8357089,41.832033 C82.8357089,18.9575836 64.2923038,0.414178544 41.4178544,0.414178544 C18.5434051,0.414178544 0,18.9575836 0,41.832033 C0,64.7064824 18.5434051,83.2498874 41.4178544,83.2498874 Z" id="Oval-35" fill="#6BBCFF"></path>
                        <path d="M52.3148687,44.910719 L47.9516459,49.2835519 C44.0147192,53.2199124 37.6399373,53.2149208 33.7091528,49.2723997 C29.7783684,45.3298786 29.7783684,38.9410542 33.7091528,34.9985331 C37.6399373,31.056012 44.0147192,31.0510204 47.9516459,34.9873809 L49.5360833,36.5801346 L46.7669298,39.3553872 L45.201756,37.7722866 C42.7940389,35.3678525 38.8980136,35.3724919 36.4960045,37.7826534 C34.0939954,40.1928149 34.0939954,44.097424 36.4960045,46.5075855 C38.8980136,48.917747 42.7940389,48.9223864 45.201756,46.5179523 L47.7108499,44.0033321 L49.5360833,42.1161603 L52.3052369,39.3409076 L59.456877,32.1976487 L55.0936541,27.8248158 C47.2136279,19.9479273 34.4558554,19.9590013 26.5894556,27.8495581 C18.7230557,35.740115 18.7230557,48.5259913 26.5894556,56.4165481 C34.4558554,64.3071049 47.2136279,64.318179 55.0936541,56.4412904 L59.456877,52.0684576 L52.3148687,44.910719 L52.3148687,44.910719 L52.3148687,44.910719 Z M23.7709154,25.0495632 C33.1997899,15.6501456 48.4339332,15.6501456 57.8628077,25.0495632 L62.2260305,29.422396 L63.6130153,30.8124356 L65,32.1976487 L62.2260305,34.9729013 L56.9285194,40.2820803 L55.0840223,42.1161603 L55.0840223,42.1161603 L62.2260305,49.2932049 L64.9951841,52.0684576 L63.6081993,53.4536706 L62.2212146,54.8437102 L57.8579918,59.2165431 C48.3979955,68.3745374 33.3596849,68.243491 24.0600149,58.9220216 C14.7603449,49.6005522 14.6317109,34.5291013 23.7709154,25.0495632 L23.7709154,25.0495632 Z" id="Shape" fill="#FFFFFF"></path>
                    </g>
                </g>
            </g>
        </g>
    </g>
</svg>