<svg xmlns="http://www.w3.org/2000/svg" id="Layer_1" viewBox="0 0 294 100">
  <style>.st0{fill-rule:evenodd;clip-rule:evenodd;fill:#FFFFFF;}</style>
  <path class="st0" d="M278.4 47.5c4.8 0 8.7 3.9 8.7 8.7 0 4.8-3.9 8.7-8.7 8.7-4.8 0-8.7-3.9-8.7-8.7 0-4.8 3.9-8.7 8.7-8.7zm-35.2-.7c4.6 0 8.4 3.8 8.4 8.4 0 4.6-3.8 8.4-8.4 8.4-4.6 0-8.4-3.8-8.4-8.4 0-4.6 3.8-8.4 8.4-8.4zm11.9-.2l3.1-4.1-5.1-3.9-2.9 3.7c-2.1-1.1-4.5-1.8-7.1-1.8-8.1 0-14.7 6.6-14.7 14.7s6.6 14.7 14.7 14.7c.6 0 1.2 0 1.8-.1 3.7.6 6.5 3.3 6.5 6.5 0 3.7-3.6 6.7-8.1 6.7s-8.1-3-8.1-6.7H229v.2c0 6.6 6.5 12 14.6 12s14.6-5.4 14.6-12c0-4-2.4-7.5-6-9.7 3.4-2.7 5.7-6.9 5.7-11.6 0-3.2-1-6.2-2.8-8.6zm23.3-5.7c-8.5 0-15.3 6.9-15.3 15.3 0 8.5 6.9 15.3 15.3 15.3s15.3-6.9 15.3-15.3-6.8-15.3-15.3-15.3zm-63.5.5h7.2v29h-7.2v-3.9c-9.1 8.7-22.3 3.9-22.1-10.3V41.4h7.2v15.4c0 1.4 0 2.6.5 3.9 2.2 5.2 10.2 6.1 13.6.6.8-1.3.8-2.1.8-3.6V41.4zm-43.2 29.2h-7.2v-29h7.2v3.9c3.6-5.9 11.5-5.3 16-1.8l-3.2 5.5c-3-2.9-9.8-3-12.2 2.3-.5 1.1-.5 2.2-.5 3.3l-.1 15.8zm-27.1-42.3c6.1 0 11.7 2.5 15.6 6.6l-5.1 5.1c-2.7-2.8-6.4-4.5-10.5-4.5-8.1 0-14.6 6.5-14.6 14.6s6.5 14.6 14.6 14.6c4.1 0 7.8-1.7 10.5-4.5l5.1 5.1c-4 4.1-9.5 6.6-15.6 6.6-12 0-21.8-9.8-21.8-21.8 0-12.1 9.8-21.8 21.8-21.8zM74.1 55.8L65 64.9c-4 4-9.4 6.1-14.7 6.1-5.4 0-10.7-2-14.8-6.1-4.1-4.1-6.1-9.4-6.1-14.8s2-10.7 6.1-14.8c4.1-4.1 9.4-6.1 14.8-6.1s10.7 2 14.8 6.1l3.3 3.3-5.8 5.8-3.3-3.4c-2.5-2.5-5.8-3.7-9.1-3.7s-6.6 1.2-9.1 3.7-3.7 5.8-3.7 9.1 1.2 6.6 3.7 9.1 5.8 3.7 9.1 3.7 6.6-1.2 9.1-3.7l5.2-5.2 3.8-3.8 5.8-5.8 14.9-15-9.1-9.1C71.8 12.2 61 8.2 50.3 8.2c-10.7 0-21.5 4.1-29.6 12.2S8.4 39.3 8.4 50c0 10.7 4.1 21.5 12.2 29.6s18.9 12.2 29.6 12.2c10.7 0 21.5-4.1 29.6-12.2l9.1-9.1-14.8-14.7zM14.9 14.6C24.6 4.9 37.4 0 50.3 0 63.1 0 76 4.9 85.7 14.6l9.1 9.1 2.9 2.9 2.9 2.9-5.8 5.8-11 11-3.9 3.7 14.8 14.8 5.8 5.8-2.9 2.9-2.9 2.9-9.1 9.1C75.9 95.2 63.1 100 50.3 100c-12.8 0-25.7-4.9-35.4-14.6C5.1 75.7.3 62.9.3 50s4.8-25.6 14.6-35.4z"/>
</svg>
