<?xml version="1.0" encoding="UTF-8" standalone="no"?>
<svg width="799px" height="959px" viewBox="0 0 799 959" version="1.1" xmlns="http://www.w3.org/2000/svg" xmlns:xlink="http://www.w3.org/1999/xlink">
    <!-- Generator: Sketch 39.1 (31720) - http://www.bohemiancoding.com/sketch -->
    <title>Illustration</title>
    <desc>Created with Sketch.</desc>
    <defs>
        <rect id="path-1" x="0" y="0.714494551" width="371" height="711.410652" rx="100"></rect>
        <filter x="-50%" y="-50%" width="200%" height="200%" filterUnits="objectBoundingBox" id="filter-2">
            <feOffset dx="0" dy="2" in="SourceAlpha" result="shadowOffsetOuter1"></feOffset>
            <feGaussianBlur stdDeviation="57" in="shadowOffsetOuter1" result="shadowBlurOuter1"></feGaussianBlur>
            <feColorMatrix values="0 0 0 0 0.32236356   0 0 0 0 0.417699304   0 0 0 0 0.4939679  0 0 0 0.215891078 0" type="matrix" in="shadowBlurOuter1"></feColorMatrix>
        </filter>
        <rect id="path-3" x="0" y="0.125146959" width="371" height="739" rx="61"></rect>
        <filter x="-50%" y="-50%" width="200%" height="200%" filterUnits="objectBoundingBox" id="filter-4">
            <feOffset dx="0" dy="2" in="SourceAlpha" result="shadowOffsetOuter1"></feOffset>
            <feGaussianBlur stdDeviation="57" in="shadowOffsetOuter1" result="shadowBlurOuter1"></feGaussianBlur>
            <feColorMatrix values="0 0 0 0 0.32236356   0 0 0 0 0.417699304   0 0 0 0 0.4939679  0 0 0 0.215891078 0" type="matrix" in="shadowBlurOuter1"></feColorMatrix>
        </filter>
    </defs>
    <g id="Crugo-Design" stroke="none" stroke-width="1" fill="none" fill-rule="evenodd">
        <g id="Landing-Page" transform="translate(-35.000000, -4408.000000)">
            <g id="Download" transform="translate(134.000000, 4505.000000)">
                <g id="Illustration">
                    <g id="Group-27" transform="translate(0.000000, 57.000000)">
                        <g id="Rectangle-68">
                            <use fill="black" fill-opacity="1" filter="url(#filter-2)" xlink:href="#path-1"></use>
                            <use fill="#FFFFFF" fill-rule="evenodd" xlink:href="#path-1"></use>
                        </g>
                        <g id="Group-28" transform="translate(14.000000, 97.000000)">
                            <rect id="Rectangle-69" fill="#F1F4F7" x="0" y="0" width="324" height="535"></rect>
                            <rect id="Rectangle-70" fill="#FFD987" x="24" y="96" width="180" height="53" rx="26.5"></rect>
                            <rect id="Rectangle-71" fill="#E8BD65" x="53" y="119" width="123" height="8" rx="4"></rect>
                            <rect id="Rectangle-70-Copy" fill="#C0DAFF" transform="translate(211.000000, 227.420882) scale(-1, 1) translate(-211.000000, -227.420882) " x="118" y="166" width="186" height="122.841764" rx="56"></rect>
                            <rect id="Rectangle-71" fill="#9DBDE9" x="149" y="191" width="123" height="8" rx="4"></rect>
                            <rect id="Rectangle-71-Copy" fill="#9DBDE9" x="149" y="221" width="123" height="8" rx="4"></rect>
                            <rect id="Rectangle-71-Copy-2" fill="#9DBDE9" x="212" y="251" width="60" height="8" rx="4"></rect>
                            <rect id="Rectangle-69-Copy" fill="#6AA6FA" x="0" y="0" width="324" height="72"></rect>
                            <rect id="Rectangle-72" fill="#5590E3" x="122" y="32" width="81" height="10" rx="5"></rect>
                        </g>
                        <rect id="Rectangle-72-Copy" fill="#E3E7EE" x="166" y="46" width="81" height="10" rx="5"></rect>
                    </g>
                    <g id="Group-27-Copy" transform="translate(230.000000, 0.000000)">
                        <g id="Rectangle-68">
                            <use fill="black" fill-opacity="1" filter="url(#filter-4)" xlink:href="#path-3"></use>
                            <use fill="#FFFFFF" fill-rule="evenodd" xlink:href="#path-3"></use>
                        </g>
                        <rect id="Rectangle-69" fill="#F1F4F7" x="25" y="94" width="324" height="535"></rect>
                        <rect id="Rectangle-70" fill="#FFD987" x="49" y="190" width="180" height="53" rx="26.5"></rect>
                        <rect id="Rectangle-71" fill="#E8BD65" x="78" y="213" width="123" height="8" rx="4"></rect>
                        <rect id="Rectangle-70-Copy" fill="#C0DAFF" transform="translate(236.000000, 321.420882) scale(-1, 1) translate(-236.000000, -321.420882) " x="143" y="260" width="186" height="122.841764" rx="56"></rect>
                        <rect id="Rectangle-71" fill="#9DBDE9" x="174" y="285" width="123" height="8" rx="4"></rect>
                        <rect id="Rectangle-71-Copy" fill="#9DBDE9" x="174" y="315" width="123" height="8" rx="4"></rect>
                        <rect id="Rectangle-71-Copy-2" fill="#9DBDE9" x="237" y="345" width="60" height="8" rx="4"></rect>
                        <rect id="Rectangle-69-Copy" fill="#6AA6FA" x="25" y="94" width="324" height="72"></rect>
                        <rect id="Rectangle-72" fill="#5590E3" x="147" y="126" width="81" height="10" rx="5"></rect>
                        <rect id="Rectangle-72-Copy" fill="#E3E7EE" x="147" y="52" width="81" height="10" rx="5"></rect>
                    </g>
                </g>
            </g>
        </g>
    </g>
</svg>