<?xml version="1.0" encoding="utf-8"?>
<!-- Generator: Adobe Illustrator 21.0.0, SVG Export Plug-In . SVG Version: 6.00 Build 0)  -->
<svg version="1.1" xmlns="http://www.w3.org/2000/svg" xmlns:xlink="http://www.w3.org/1999/xlink" x="0px" y="0px"
	 viewBox="0 0 250 250" style="enable-background:new 0 0 250 250;" xml:space="preserve">
<style type="text/css">
	.st0{fill:#55ADD3;}
	.st1{fill:#E2E2E2;}
	.st2{fill:#FFFFFF;}
	.st3{opacity:0.2;fill:#FFFFFF;}
	.st4{opacity:0.2;}
	.st5{fill:#7F1416;}
	.st6{fill:#F7B78F;}
	.st7{fill:#623412;}
	.st8{fill:#A61E22;}
	.st9{fill:#E8AC86;}
	.st10{fill:#262626;}
	.st11{fill:#7C4739;}
	.st12{opacity:0.41;}
	.st13{fill:#0C0C0C;}
	.st14{fill:#475677;}
	.st15{fill:#3C4C66;}
	.st16{opacity:0.5;fill:#353535;}
	.st17{fill:#CCCCCC;}
	.st18{fill:none;stroke:#475677;stroke-width:5;stroke-linecap:round;stroke-miterlimit:10;}
	.st19{fill:#474747;}
	.st20{fill:#C29165;}
	.st21{fill:#CF9A6B;}
	.st22{fill:#AD815A;}
	.st23{opacity:0.5;fill:#383838;}
	.st24{fill:#EC6B56;}
	.st25{fill:#61BC6D;}
	.st26{fill:#3A3A3A;}
	.st27{fill:#BC3F31;}
	.st28{fill:#40A049;}
	.st29{fill:none;stroke:#BC3F31;stroke-miterlimit:10;}
	.st30{fill:none;stroke:#40A049;stroke-miterlimit:10;}
	.st31{fill:#A5A5A5;}
	.st32{fill:none;stroke:#263242;stroke-width:4;stroke-linecap:round;stroke-miterlimit:10;}
	.st33{clip-path:url(#SVGID_2_);fill:#2B8272;}
	.st34{fill:#4B9587;}
	.st35{fill:#359685;}
	.st36{fill:#53A697;}
	.st37{fill:#3DB39E;}
	.st38{fill:#81CEC0;}
	.st39{fill:#C18B63;}
	.st40{clip-path:url(#SVGID_4_);fill:#2B8272;}
	.st41{fill:#75706D;}
	.st42{fill:#41A85F;}
	.st43{opacity:0.1;}
	.st44{fill:#E7B28A;}
	.st45{opacity:0.2;fill:#5B5B5B;}
	.st46{fill:#4A4C47;}
	.st47{fill:#333530;}
	.st48{fill:url(#);}
	.st49{fill:#FAA026;}
	.st50{fill:#BC7622;}
	.st51{clip-path:url(#SVGID_10_);}
	.st52{fill:#C0BFC4;}
	.st53{clip-path:url(#SVGID_12_);}
	.st54{fill:#A6A5AB;}
	.st55{fill:none;stroke:url(#);stroke-width:8;stroke-miterlimit:10;}
	.st56{fill:none;stroke:url(#);stroke-width:7;stroke-miterlimit:10;}
	.st57{fill:none;stroke:url(#);stroke-width:6;stroke-miterlimit:10;}
	.st58{fill:#F8DB65;}
	.st59{fill:#FAC51F;}
	.st60{fill:#2A69B0;}
	.st61{fill:#D14840;}
	.st62{clip-path:url(#SVGID_18_);}
	.st63{fill:none;}
	.st64{fill:#515056;}
	.st65{clip-path:url(#SVGID_20_);}
	.st66{fill:#38373C;}
	.st67{clip-path:url(#SVGID_22_);}
	.st68{fill:#CCE1F2;}
	.st69{clip-path:url(#SVGID_24_);}
	.st70{fill:#AFD3EE;}
	.st71{clip-path:url(#SVGID_26_);}
	.st72{fill:#83828A;}
	.st73{clip-path:url(#SVGID_28_);}
	.st74{fill:#1CBB9B;}
	.st75{fill:#098C6D;}
	.st76{fill:none;stroke:url(#);stroke-width:7.769;stroke-linecap:round;stroke-miterlimit:10;}
	.st77{fill:#9265B8;}
	.st78{fill:#553984;}
	.st79{fill:none;stroke:#FFFFFF;stroke-width:3;stroke-linecap:round;stroke-miterlimit:10;}
	.st80{fill:#28812F;}
	.st81{fill:#ECD361;}
	.st82{fill:#38454F;}
	.st83{fill:#283238;}
	.st84{fill:#5E5E60;}
	.st85{fill:#546A79;}
	.st86{fill:#CBD4D8;}
	.st87{fill:#FFD85C;}
	.st88{fill:#FF503D;}
	.st89{fill:#8EC766;}
	.st90{opacity:0.2;clip-path:url(#SVGID_32_);fill:#FFFFFF;}
	.st91{fill:#FEA621;}
	.st92{fill:#5065A1;}
	.st93{fill:#E6E7E8;}
	.st94{fill:#1ABC9C;}
	.st95{fill:#9B59B6;}
	.st96{opacity:0.3;fill:#606060;}
	.st97{fill:#EF717A;}
	.st98{fill:#3498DB;}
</style>
<g id="BACKGROUND">
</g>
<g id="DESIGNED_BY_FREEPIK">
</g>
<g id="OBJECTS">
	<g>
		<circle class="st94" cx="121.1" cy="134.2" r="78.8"/>
		<g>
			<path class="st94" d="M46.8,208.6c-20.2-20.2-31.5-48-30.8-76.9c0-2,1.7-3.6,3.7-3.6c2,0,3.6,1.7,3.6,3.7
				c-0.8,31.5,13.8,61.5,38.9,80.5c43.1,32.5,104.6,23.8,137-19.3c15.6-20.7,22.2-46.5,18.5-72.5c-3.7-26-17.1-48.9-37.8-64.5
				c-3.9-2.9-8.1-5.6-12.4-8c-1.8-1-2.4-3.2-1.5-4.9c1-1.8,3.2-2.4,4.9-1.5c4.6,2.5,9.1,5.4,13.3,8.5c22.3,16.8,36.7,41.4,40.6,69.4
				c3.9,27.9-3.2,55.6-19.9,77.9s-41.4,36.7-69.4,40.6c-27.9,3.9-55.6-3.2-77.9-19.9C53.9,215.2,50.3,212,46.8,208.6z"/>
		</g>
		<g>
			<path class="st95" d="M117.8,170.6H63.9c-12.4,0-22.4-10-22.4-22.4v-115c0-12.4,10-22.4,22.4-22.4h53.9c12.4,0,22.4,10,22.4,22.4
				v115C140.2,160.6,130.2,170.6,117.8,170.6z"/>
		</g>
		<g>
			<path class="st94" d="M104.3,145.2L72.9,144c-12.4-0.4-22-10.8-21.6-23.2l2.8-78.6c0.4-12.4,10.8-22,23.2-21.6l31.4,1.1
				c12.4,0.4,22,10.8,21.6,23.2l-2.8,78.6C127.1,135.9,116.7,145.6,104.3,145.2z"/>
		</g>
		<g>
			<path class="st2" d="M86,159c0-1.2-0.1-2.7-0.1-4.4c-0.1-1.7,0.3-3.6,0.5-5.7c0.2-2.1,0.5-4.4,1.3-6.7c0.7-2.4,1.3-4.9,2.6-7.4
				c0.5-1.3,1.1-2.5,1.7-3.8c0.6-1.3,1.5-2.4,2.3-3.6c1.5-2.5,3.4-4.8,5.4-7c1.9-2.3,4.3-4.1,6.5-6.2c2.4-1.7,4.6-3.6,7.1-5
				c2.4-1.5,4.7-2.8,7-3.9c2.3-1.3,4.5-2.1,6.6-3c3.2-1.3,6-2.2,8.4-2.9c-1-2.4-1.8-4.9-2.4-7.6c-0.6-2.7-1.2-5.5-1.3-8.7
				c3.1,0.9,5.6,2.1,8.1,3.4c2.5,1.3,4.8,2.8,6.9,4.4c4.3,3.2,7.9,6.8,11.2,10.7c2.5,3,2.7,7.1,0.9,10.2l-0.4,0.6
				c-3.1,5.1-6.7,9.8-11.1,14.1c-2.2,2.1-4.5,4.1-7.2,5.9c-1.4,0.9-2.7,1.8-4.2,2.6c-1.5,0.8-3.1,1.6-4.8,2.2
				c-0.1-1.8-0.1-3.6,0.1-5.3c0.2-1.6,0.4-3.3,0.6-4.9c0.6-3.2,1.4-6.2,2.5-9c0.1-0.3,0.2-0.6,0.3-0.9c-1,0.1-2.1,0.3-3.2,0.4
				c-1.8,0.4-3.8,0.6-5.9,1.3c-2.1,0.5-4.3,1.1-6.4,1.9c-2.3,0.7-4.3,1.8-6.7,2.7c-2,1.3-4.4,2.3-6.3,3.8c-2,1.5-4.1,3-5.8,4.8
				c-0.8,0.9-1.8,1.7-2.6,2.6c-0.7,1-1.4,2-2.2,2.9c-1.6,1.8-2.6,4-3.6,6c-1.2,1.9-1.9,4-2.5,5.8c-0.6,1.9-1.4,3.6-1.6,5.3
				c-0.3,1.6-0.6,3-0.8,4.2c-0.5,2.4-0.7,3.7-0.7,3.7S86.1,161.4,86,159L86,159z"/>
			<path class="st2" d="M139.2,175.1c-2.2,1.3-4.5,2.2-6.5,3.2c-3.2,1.4-6,2.4-8.3,3.2c1.1,2.4,2,4.8,2.7,7.5
				c0.7,2.7,1.4,5.5,1.5,8.7c-3.1-0.7-5.7-1.9-8.3-3.2c-2.5-1.3-4.8-2.6-7-4.2c-4.4-3-8.1-6.6-11.5-10.4c-2.6-2.9-3-7-1.2-10.2
				l0.4-0.7c2.9-5.2,6.3-10,10.6-14.4c2.1-2.2,4.4-4.3,7-6.2c1.3-0.9,2.7-1.8,4.1-2.7c1.5-0.9,3-1.7,4.7-2.4
				c0.2,1.8,0.2,3.6,0.1,5.3c-0.1,1.7-0.3,3.3-0.5,4.9c-0.5,3.2-1.2,6.2-2.2,9.1c-0.1,0.3-0.2,0.6-0.3,0.9c1-0.2,2.1-0.3,3.2-0.5
				c1.8-0.4,3.8-0.8,5.8-1.4c2.1-0.5,4.2-1.3,6.3-2.1c2.3-0.7,4.3-2,6.6-3c2-1.3,4.3-2.4,6.2-4c2-1.5,4-3.1,5.6-4.9
				c0.9-0.9,1.8-1.7,2.5-2.7c0.7-1,1.4-2,2.1-3c1.5-1.9,2.5-4,3.4-6.1c1.2-2,1.8-4,2.4-5.9c0.5-1.9,1.3-3.6,1.5-5.3
				c0.3-1.6,0.5-3.1,0.7-4.2c0.4-2.4,0.6-3.7,0.6-3.7s0.1,1.4,0.2,3.8c0.1,1.2,0.2,2.7,0.3,4.3c0.2,1.7-0.2,3.6-0.4,5.7
				c-0.1,2.1-0.4,4.4-1.1,6.8c-0.6,2.4-1.1,5-2.3,7.4c-0.6,1.3-1.1,2.5-1.7,3.9c-0.6,1.3-1.4,2.5-2.2,3.7c-1.4,2.6-3.3,4.8-5.2,7.2
				c-1.9,2.4-4.2,4.2-6.3,6.3c-2.3,1.8-4.5,3.8-6.9,5.2C143.8,172.5,141.5,174,139.2,175.1L139.2,175.1z"/>
		</g>
		<path class="st96" d="M90.8,10.8H63.9c-12.4,0-22.4,10-22.4,22.4v115c0,12.4,10,22.4,22.4,22.4h26.9V10.8z"/>
	</g>
</g>
</svg>
