<?xml version="1.0" encoding="utf-8"?>
<!-- Generator: Adobe Illustrator 16.0.0, SVG Export Plug-In . SVG Version: 6.00 Build 0)  -->
<!DOCTYPE svg PUBLIC "-//W3C//DTD SVG 1.1//EN" "http://www.w3.org/Graphics/SVG/1.1/DTD/svg11.dtd">
<svg version="1.1" id="Layer_1" xmlns="http://www.w3.org/2000/svg" xmlns:xlink="http://www.w3.org/1999/xlink" x="0px" y="0px"
	 width="1190.549px" height="841.891px" viewBox="0 0 1190.549 841.891" enable-background="new 0 0 1190.549 841.891"
	 xml:space="preserve">
<g id="BACKGROUND">
</g>
<g id="DESIGNED_BY_FREEPIK">
</g>
<g id="OBJECTS">
	<path fill="#55ADD3" d="M1087.901,835.364H102.65c-44.379,0-80.273-35.895-80.273-80.273V87.887
		c0-44.378,35.895-80.273,80.273-80.273h985.251c44.378,0,80.272,35.895,80.272,80.273v667.204
		C1167.955,799.47,1132.061,835.364,1087.901,835.364z"/>
	<g>
		<g>
			<circle fill="#FFFFFF" cx="602.127" cy="359.381" r="103.986"/>
			<g opacity="0.2">
				<g>
					<path fill="#FFFFFF" d="M471.602,334.146c-0.436,0-1.088,0-1.523-0.218c-3.697-0.87-6.091-4.568-5.221-8.267
						c14.575-63.522,72.225-109.641,137.27-109.641c60.26,0,113.992,38.722,133.354,96.154c1.306,3.48-0.652,7.396-4.351,8.701
						c-3.698,1.306-7.396-0.652-8.702-4.351c-17.62-51.993-65.915-86.799-120.519-86.799c-58.736,0-110.729,41.768-123.999,98.982
						C477.475,331.97,474.648,334.146,471.602,334.146z"/>
				</g>
				<g>
					<g>
						<path fill="#FFFFFF" d="M468.338,357.857c7.18-13.705,18.274-30.238,29.369-40.027l-25.018,5.656l-22.842-11.748
							C457.897,323.921,464.858,342.848,468.338,357.857z"/>
					</g>
				</g>
			</g>
			<g opacity="0.2">
				<g>
					<path fill="#FFFFFF" d="M602.127,502.523c-60.259,0-113.992-38.723-133.354-96.153c-1.306-3.481,0.652-7.396,4.351-8.702
						c3.48-1.306,7.396,0.652,8.702,4.351c17.621,51.993,65.915,86.8,120.519,86.8c58.736,0,110.729-41.769,123.999-98.981
						c0.87-3.698,4.568-6.092,8.267-5.222s6.091,4.568,5.221,8.267C724.822,456.404,667.172,502.523,602.127,502.523z"/>
				</g>
				<g>
					<g>
						<path fill="#FFFFFF" d="M736.133,360.903c-7.179,13.705-18.273,30.238-29.368,40.027l25.018-5.655l22.842,11.747
							C746.358,394.622,739.615,375.914,736.133,360.903z"/>
					</g>
				</g>
			</g>
			<g>
				<g>
					<text transform="matrix(1 0 0 1 562.824 349.5957)" fill="#55ADD3" font-family="'ArialMT'" font-size="52.7567">Pick</text>
				</g>
				<g>
					<text transform="matrix(1 0 0 1 576.3083 399.0469)" fill="#55ADD3" font-family="'ArialMT'" font-size="52.7567">Up</text>
				</g>
			</g>
		</g>
		<g>
			<g>
				<g>
					<path fill="#7F1416" d="M720.688,661.765c-10.225,0-19.361-7.179-21.319-17.621c-2.175-11.747,5.656-23.06,17.404-25.234
						c161.198-29.804,163.592-102.245,163.592-103.115c-0.436-11.965,9.137-21.755,20.884-22.189
						c11.965-0.218,21.754,9.137,22.189,20.884c0.218,4.568,0.652,109.859-199.052,146.624
						C723.299,661.547,721.776,661.765,720.688,661.765z"/>
				</g>
			</g>
			<circle fill="#F7B78F" cx="720.688" cy="640.228" r="22.189"/>
		</g>
		<path fill="#623412" d="M1079.851,350.026c0,0-9.137,46.989-40.897,59.606c-2.828-10.659,22.624-126.392,39.375-117.69
			C1079.198,298.469,1081.373,344.588,1079.851,350.026z"/>
		<circle fill="#F7B78F" cx="1085.073" cy="325.879" r="27.41"/>
		<path fill="#A61E22" d="M1078.763,570.396c0,49.165-39.81,89.193-89.192,89.193H919.74c-49.165,0-89.192-39.811-89.192-89.193
			v-6.309c0-49.164,39.811-89.192,89.192-89.192h69.831c49.165,0,89.192,39.811,89.192,89.192V570.396z"/>
		<path fill="#A61E22" d="M989.788,474.896h-35.024v184.477h35.024c49.165,0,89.192-39.811,89.192-89.192v-6.309
			C1078.763,514.706,1038.953,474.896,989.788,474.896z"/>
		<path fill="#E8AC86" d="M997.185,493.387c0,27.628-41.333,55.038-41.333,55.038s-41.333-27.41-41.333-55.038
			s17.838-35.024,41.333-35.024C979.346,458.362,997.185,465.541,997.185,493.387z"/>
		<path fill="#F7B78F" d="M991.094,485.99c0,19.579-15.881,35.242-35.242,35.242l0,0c-19.579,0-35.242-15.881-35.242-35.242v-55.256
			c0-19.579,15.881-35.242,35.242-35.242l0,0c19.578,0,35.242,15.881,35.242,35.242V485.99z"/>
		<path fill="#E8AC86" d="M955.852,395.492c-19.579,0-35.242,15.881-35.242,35.242v29.804c10.225,3.48,22.189,5.656,35.242,5.656
			s25.018-2.176,35.242-5.656v-29.804C991.094,411.373,975.213,395.492,955.852,395.492z"/>
		<circle fill="#F7B78F" cx="944.757" cy="325.879" r="130.961"/>
		<circle fill="#262626" cx="864.919" cy="345.675" r="9.79"/>
		<circle fill="#262626" cx="944.975" cy="345.675" r="9.79"/>
		<path fill="#623412" d="M1026.771,257.788c0,0,34.154,45.901,52.646,42.638c-5.656-74.834-51.993-119.431-134.659-119.431
			c-67.873,0-86.364,24.147-141.62,4.351C760.934,356.335,960.202,314.784,1026.771,257.788z"/>
		<g>
			<g>
				<path fill="#7C4739" d="M913.865,427.036c-1.522,0-2.61-1.088-2.61-2.61v-0.218c0-8.049,6.526-14.575,14.575-14.575
					c8.05,0,14.576,6.526,14.576,14.575c0,1.523-1.088,2.61-2.611,2.61c-1.522,0-2.61-1.087-2.61-2.61
					c0-5.221-4.133-9.354-9.354-9.354c-5.221,0-9.354,4.134-9.354,9.354C916.477,425.731,915.171,427.036,913.865,427.036
					L913.865,427.036z"/>
			</g>
		</g>
		<g opacity="0.41">
			<path fill="#0C0C0C" d="M1055.703,503.611c1.306,2.61,1.958,5.656,2.176,8.701c0.218,4.352,0.652,99.418-170.336,140.533
				c10.007,3.916,20.884,6.091,32.414,6.091h69.831c49.165,0,89.192-39.81,89.192-89.192v-6.309
				C1078.981,540.376,1070.062,519.274,1055.703,503.611z"/>
		</g>
		<g>
			<g>
				<g>
					<path fill="#7F1416" d="M854.912,661.765c-10.225,0-19.361-7.179-21.319-17.621c-2.176-11.747,5.655-23.06,17.403-25.234
						c161.199-29.804,163.592-102.245,163.592-103.115c-0.436-11.965,9.137-21.755,20.885-22.189
						c11.965-0.218,21.754,9.137,22.188,20.884c0.218,4.568,0.653,109.859-199.052,146.624
						C857.74,661.547,856.217,661.765,854.912,661.765z"/>
				</g>
			</g>
			<circle fill="#F7B78F" cx="855.129" cy="640.228" r="22.189"/>
		</g>
		<g>
			<path fill="#CCCCCC" d="M822.933,669.161h-58.954c-7.613,0-14.575-6.091-15.663-13.705l-16.751-119.648
				c-1.087-7.614,4.352-13.705,11.748-13.705h58.954c7.613,0,14.575,6.091,15.663,13.705l16.75,119.648
				C835.768,662.853,830.547,669.161,822.933,669.161z"/>
			<path fill="#E2E2E2" d="M817.712,676.558h-58.954c-7.614,0-14.575-6.091-15.663-13.705l-16.751-119.648
				c-1.088-7.614,4.351-13.705,11.747-13.705h58.954c7.614,0,14.576,6.091,15.663,13.705l16.751,119.648
				C830.547,670.467,825.326,676.558,817.712,676.558z"/>
			<path fill="#FFFFFF" d="M787.692,575.618c1.087,8.267-4.568,14.793-12.836,14.793c-8.266,0-15.88-6.744-16.968-14.793
				c-1.088-8.267,4.568-14.793,12.835-14.793S786.604,567.352,787.692,575.618z"/>
			<path fill="#FFFFFF" d="M746.141,547.338c0.435,3.263-1.958,6.091-5.222,6.091c-3.263,0-6.309-2.61-6.961-6.091
				c-0.436-3.264,1.958-6.092,5.221-6.092C742.443,541.246,745.705,544.074,746.141,547.338z"/>
		</g>
		<g>
			<path fill="#A61E22" d="M278.859,472.721h-35.023v184.476h35.023c49.165,0,89.193-39.811,89.193-89.192v-6.309
				C368.052,512.53,328.024,472.721,278.859,472.721z"/>
			<path fill="#E8AC86" d="M286.473,490.994c0,27.628-41.333,55.038-41.333,55.038s-41.333-27.41-41.333-55.038
				s17.839-35.024,41.333-35.024C268.635,456.187,286.473,463.366,286.473,490.994z"/>
			<path fill="#CF9A6B" d="M280.382,483.814c0,19.579-15.881,35.242-35.242,35.242l0,0c-19.579,0-35.242-15.881-35.242-35.242
				v-55.256c0-19.578,15.881-35.241,35.242-35.241l0,0c19.579,0,35.242,15.881,35.242,35.241V483.814L280.382,483.814z"/>
			<path fill="#C18B63" d="M244.922,393.317c-19.578,0-35.241,15.881-35.241,35.241v29.804c10.224,3.48,22.188,5.656,35.241,5.656
				s25.018-2.176,35.242-5.656v-29.804C280.382,409.198,264.501,393.317,244.922,393.317z"/>
			<circle fill="#F7B78F" cx="234.045" cy="323.703" r="130.961"/>
			<path fill="#475677" d="M368.052,568.222c0,49.164-39.811,89.192-89.193,89.192h-69.831c-49.164,0-89.192-39.811-89.192-89.192
				v-6.309c0-49.165,39.811-89.192,89.192-89.192h69.831c49.165,0,89.193,39.81,89.193,89.192V568.222z"/>
			<ellipse fill="#623412" cx="234.263" cy="323.704" rx="135.964" ry="134.006"/>
			<path fill="#CF9A6B" d="M370.227,323.703c0-16.315-3.045-31.979-8.484-46.554c-48.729,20.449-82.884,67.873-82.884,123.347
				c0,16.315,3.046,31.979,8.484,46.554C336.073,426.602,370.227,379.177,370.227,323.703z"/>
			<circle fill="#CF9A6B" cx="274.944" cy="400.496" r="32.414"/>
			<path opacity="0.5" fill="#353535" enable-background="new    " d="M247.968,518.839c0,0,13.271,75.705,96.807,109.207
				c0,0-5.221,5.438-12.617,11.529C323.673,646.537,250.144,607.379,247.968,518.839z"/>
			<path fill="#475677" d="M238.614,304.342l-137.704,9.79c-2.61-35.895,8.919-71.354,32.196-98.765
				c48.729-57.866,136.616-65.48,194.483-16.533c30.238,25.453,48.294,63.087,48.946,102.68L238.614,304.342z"/>
			
				<line fill="none" stroke="#475677" stroke-width="5" stroke-linecap="round" stroke-miterlimit="10" x1="368.704" y1="296.511" x2="429.833" y2="296.728"/>
			<g>
				<path fill="#3C4C66" d="M450.935,659.59c10.225,0,19.361-7.18,21.319-17.621c2.176-11.748-5.656-23.06-17.403-25.235
					C293.652,586.93,291.259,514.488,291.259,513.618c0.436-11.965-9.137-21.754-20.884-22.189
					c-11.965-0.218-21.755,9.137-22.189,20.885c-0.218,4.568-0.652,109.858,199.051,146.623
					C448.324,659.372,449.63,659.59,450.935,659.59z"/>
				<circle fill="#CF9A6B" cx="450.935" cy="638.053" r="22.189"/>
			</g>
		</g>
	</g>
</g>
</svg>
