<?xml version="1.0" encoding="utf-8"?>
<!-- Generator: Adobe Illustrator 21.0.0, SVG Export Plug-In . SVG Version: 6.00 Build 0)  -->
<svg version="1.1" xmlns="http://www.w3.org/2000/svg" xmlns:xlink="http://www.w3.org/1999/xlink" x="0px" y="0px"
	 viewBox="0 0 536.3 387" style="enable-background:new 0 0 536.3 387;" xml:space="preserve">
<style type="text/css">
	.st0{fill:#55ADD3;}
	.st1{fill:#E2E2E2;}
	.st2{fill:#FFFFFF;}
	.st3{opacity:0.2;fill:#FFFFFF;}
	.st4{opacity:0.2;}
	.st5{fill:#7F1416;}
	.st6{fill:#F7B78F;}
	.st7{fill:#623412;}
	.st8{fill:#A61E22;}
	.st9{fill:#E8AC86;}
	.st10{fill:#262626;}
	.st11{fill:#7C4739;}
	.st12{opacity:0.41;}
	.st13{fill:#0C0C0C;}
	.st14{fill:#475677;}
	.st15{fill:#3C4C66;}
	.st16{opacity:0.5;fill:#353535;}
	.st17{fill:#CCCCCC;}
	.st18{fill:none;stroke:#475677;stroke-width:5;stroke-linecap:round;stroke-miterlimit:10;}
	.st19{fill:#474747;}
	.st20{fill:#C29165;}
	.st21{fill:#CF9A6B;}
	.st22{fill:#AD815A;}
	.st23{opacity:0.5;fill:#383838;}
	.st24{fill:#EC6B56;}
	.st25{fill:#61BC6D;}
	.st26{fill:#3A3A3A;}
	.st27{fill:#BC3F31;}
	.st28{fill:#40A049;}
	.st29{fill:none;stroke:#BC3F31;stroke-miterlimit:10;}
	.st30{fill:none;stroke:#40A049;stroke-miterlimit:10;}
	.st31{fill:#A5A5A5;}
	.st32{fill:none;stroke:#263242;stroke-width:4;stroke-linecap:round;stroke-miterlimit:10;}
	.st33{font-family:'Reef-Bold';}
	.st34{font-size:24.2512px;}
	.st35{clip-path:url(#SVGID_2_);fill:#2B8272;}
	.st36{fill:#4B9587;}
	.st37{fill:#359685;}
	.st38{fill:#53A697;}
	.st39{fill:#3DB39E;}
	.st40{fill:#81CEC0;}
	.st41{fill:#C18B63;}
	.st42{clip-path:url(#SVGID_4_);fill:#2B8272;}
	.st43{fill:#75706D;}
	.st44{fill:#41A85F;}
	.st45{opacity:0.1;}
	.st46{fill:#E7B28A;}
	.st47{opacity:0.2;fill:#5B5B5B;}
	.st48{fill:#4A4C47;}
	.st49{fill:#333530;}
	.st50{fill:url(#);}
	.st51{fill:#FAA026;}
	.st52{fill:#BC7622;}
	.st53{clip-path:url(#SVGID_10_);}
	.st54{fill:#C0BFC4;}
	.st55{clip-path:url(#SVGID_12_);}
	.st56{fill:#A6A5AB;}
	.st57{fill:none;stroke:url(#);stroke-width:8;stroke-miterlimit:10;}
	.st58{fill:none;stroke:url(#);stroke-width:7;stroke-miterlimit:10;}
	.st59{fill:none;stroke:url(#);stroke-width:6;stroke-miterlimit:10;}
	.st60{fill:#F8DB65;}
	.st61{fill:#FAC51F;}
	.st62{fill:#2A69B0;}
	.st63{fill:#D14840;}
	.st64{clip-path:url(#SVGID_18_);}
	.st65{fill:none;}
	.st66{fill:#515056;}
	.st67{clip-path:url(#SVGID_20_);}
	.st68{fill:#38373C;}
	.st69{clip-path:url(#SVGID_22_);}
	.st70{fill:#CCE1F2;}
	.st71{clip-path:url(#SVGID_24_);}
	.st72{fill:#AFD3EE;}
	.st73{clip-path:url(#SVGID_26_);}
	.st74{fill:#83828A;}
	.st75{clip-path:url(#SVGID_28_);}
	.st76{fill:#1CBB9B;}
	.st77{fill:#098C6D;}
	.st78{fill:none;stroke:url(#);stroke-width:7.769;stroke-linecap:round;stroke-miterlimit:10;}
	.st79{fill:#9265B8;}
	.st80{fill:#553984;}
	.st81{fill:none;stroke:#FFFFFF;stroke-width:3;stroke-linecap:round;stroke-miterlimit:10;}
	.st82{fill:#28812F;}
	.st83{fill:#ECD361;}
	.st84{fill:#38454F;}
	.st85{fill:#283238;}
	.st86{fill:#5E5E60;}
	.st87{fill:#546A79;}
	.st88{fill:#CBD4D8;}
	.st89{fill:#FFD85C;}
	.st90{fill:#FF503D;}
	.st91{fill:#8EC766;}
	.st92{opacity:0.2;clip-path:url(#SVGID_32_);fill:#FFFFFF;}
	.st93{fill:#FEA621;}
	.st94{fill:#5065A1;}
	.st95{fill:#E6E7E8;}
	.st96{fill:#1ABC9C;}
	.st97{fill:#9B59B6;}
	.st98{opacity:0.3;fill:#606060;}
	.st99{fill:#EF717A;}
	.st100{fill:#3498DB;}
</style>
<g id="BACKGROUND">
</g>
<g id="DESIGNED_BY_FREEPIK">
</g>
<g id="OBJECTS">
	<path class="st0" d="M494.6,383.7H41.7c-20.4,0-36.9-16.5-36.9-36.9V40.2c0-20.4,16.5-36.9,36.9-36.9h452.9
		c20.4,0,36.9,16.5,36.9,36.9v306.7C531.4,367.2,514.9,383.7,494.6,383.7z"/>
	<g>
		<path class="st19" d="M468.4,302.9H81.8c-1.6,0-3-1.3-3-3v-3.1c0-1.6,1.3-3,3-3h386.6c1.6,0,3,1.3,3,3v3.1
			C471.4,301.6,470,302.9,468.4,302.9z"/>
		<path class="st15" d="M405.5,256.3c0,20.1-16.3,36.3-36.3,36.3h-28.5c-20.1,0-36.3-16.3-36.3-36.3v-2.6
			c0-20.1,16.3-36.3,36.3-36.3h28.5c20.1,0,36.3,16.3,36.3,36.3V256.3z"/>
		<path class="st20" d="M340.7,216.1c-0.8,0-1.7,0-2.5,0.1c-0.1,0.8-0.1,1.6-0.1,2.5c0,11.3,16.9,22.4,16.9,22.4
			s16.9-11.2,16.8-22.4c0-0.9-0.1-1.7-0.1-2.4c-0.8-0.1-1.6-0.1-2.5-0.1H340.7z"/>
		<path class="st21" d="M369.3,215.7c0,7.9-6.4,14.4-14.4,14.4l0,0c-7.9,0-14.4-6.4-14.4-14.4v-22.4c0-7.9,6.4-14.4,14.4-14.4l0,0
			c7.9,0,14.4,6.4,14.4,14.4V215.7z"/>
		<path class="st22" d="M354.9,183.8c-7.9,0-14.4,6.4-14.4,14.4v12.2c4.1,1.5,9.1,2.3,14.4,2.3c5.3,0,10.2-0.9,14.4-2.3v-12.2
			C369.3,190.2,362.9,183.8,354.9,183.8z"/>
		<circle class="st21" cx="350.4" cy="155.4" r="53.4"/>
		<path class="st15" d="M346.2,128.2c38.9-1.3,57.7,26.8,59.3,38.2c4.6-8.5,7.2-18.3,7.2-28.6c0-33.4-27.1-60.5-60.5-60.5
			c-33.4,0-60.5,27.1-60.5,60.5c0,8,2.7,18.2,5.5,25.2C302.2,148,314.1,129.2,346.2,128.2z"/>
		<g>
			<circle class="st10" cx="321.2" cy="175.7" r="6"/>
			<circle class="st10" cx="369.9" cy="175.7" r="6"/>
		</g>
		<g>
			<g>
				<path class="st11" d="M352.2,191.2c0.7,0,1.2,0.5,1.2,1.2c0,0,0,0.1,0,0.1c0,3.7-3,6.7-6.7,6.7s-6.7-3-6.7-6.7
					c0-0.7,0.5-1.2,1.2-1.2c0.7,0,1.2,0.5,1.2,1.2c0,2.4,1.9,4.3,4.3,4.3c2.4,0,4.3-1.9,4.3-4.3C351,191.8,351.5,191.2,352.2,191.2
					L352.2,191.2z"/>
			</g>
		</g>
		<g>
			<circle class="st2" cx="174.7" cy="147.1" r="47.8"/>
			<g>
				<text transform="matrix(1 0 0 1 145.2533 153.9656)" class="st0 st33 st34">Repair</text>
			</g>
			<path class="st3" d="M144.4,98.1c2.7-1.9,4.3-4.6,3.6-8.2l-5.9,4.2l-4.4-1.9l-0.3-4.8l5.9-4.2c-2.6-1.2-6.2-1.2-9,0.7
				c-3.4,2.4-4.5,6.8-3,10.4l-13.6,13.7c-2.6-1.1-5.8-0.9-8.3,0.9c-2.7,1.9-4,5-3.7,8.1c0,0,0.5,4.7,4.6,6.8
				c2.8,1.4,6.3,1.4,9.1-0.5c3.2-2.2,4.5-6.2,3.4-9.8l14.1-14.2C139.2,100.1,142.1,99.7,144.4,98.1L144.4,98.1z M117.5,119.6
				l-4.8,1.5l-3.2-3.2l1.5-4.8l4.8-1.5l3.2,3.2L117.5,119.6z M117.5,119.6"/>
			<g class="st4">
				<path class="st2" d="M181.8,75.7l-3-0.5c-0.2-0.9-0.5-1.7-0.9-2.5l1.9-2.4c0.4-0.5,0.4-1.2,0-1.7l-1.2-1.3
					c-0.4-0.5-1.1-0.6-1.7-0.2l-2.6,1.6c-1.1-0.8-2.4-1.4-3.8-1.7l-0.5-3c-0.1-0.6-0.7-1.1-1.3-1.1h-1.8c-0.6,0-1.2,0.5-1.3,1.1
					l-0.5,3c-1.1,0.3-2.2,0.7-3.2,1.3l-2.4-1.7c-0.5-0.4-1.2-0.3-1.7,0.1l-1.3,1.3c-0.5,0.5-0.5,1.2-0.1,1.7l1.7,2.4
					c-0.6,1-1,2-1.3,3.2l-3,0.5c-0.6,0.1-1.1,0.7-1.1,1.3v1.8c0,0.6,0.5,1.2,1.1,1.3l3,0.5c0.2,0.9,0.6,1.8,1,2.6l-1.9,2.4
					c-0.4,0.5-0.4,1.2,0,1.7l1.2,1.3c0.4,0.5,1.1,0.6,1.7,0.2l2.6-1.6c1.1,0.8,2.3,1.3,3.7,1.6l0.5,3c0.1,0.6,0.7,1.1,1.3,1.1h1.8
					c0.6,0,1.2-0.5,1.3-1.1l0.5-3c1.1-0.3,2.2-0.7,3.1-1.3l2.5,1.8c0.5,0.4,1.2,0.3,1.7-0.1l1.3-1.3c0.5-0.5,0.5-1.2,0.1-1.7
					l-1.8-2.5c0.6-1,1-2,1.3-3.2l3-0.5c0.6-0.1,1.1-0.7,1.1-1.3V77C182.9,76.4,182.4,75.8,181.8,75.7L181.8,75.7z M167.8,83.6
					c-3.1,0-5.7-2.5-5.7-5.7c0-3.1,2.5-5.7,5.7-5.7c3.1,0,5.7,2.5,5.7,5.7C173.5,81,170.9,83.6,167.8,83.6L167.8,83.6z M167.8,83.6"
					/>
			</g>
			<path class="st3" d="M223.7,116.8c1.9,2.7,4.6,4.3,8.2,3.6l-4.2-5.8l1.9-4.4l4.8-0.3l4.2,5.9c1.2-2.6,1.2-6.2-0.7-9
				c-2.4-3.4-6.8-4.5-10.4-3l-13.7-13.6c1.1-2.6,0.9-5.8-0.9-8.3c-1.9-2.7-5-4-8.1-3.7c0,0-4.7,0.5-6.8,4.6
				c-1.4,2.8-1.4,6.3,0.5,9.1c2.2,3.2,6.2,4.5,9.8,3.4l14.2,14.1C221.7,111.7,222,114.5,223.7,116.8L223.7,116.8z M202.1,89.9
				l-1.5-4.8l3.2-3.2l4.8,1.5l1.5,4.8l-3.2,3.2L202.1,89.9z M202.1,89.9"/>
			<g class="st4">
				<path class="st2" d="M246.1,154.2l0.5-3c0.9-0.2,1.7-0.5,2.5-0.9l2.4,1.9c0.5,0.4,1.2,0.4,1.7,0l1.3-1.2
					c0.5-0.4,0.6-1.1,0.2-1.7l-1.6-2.6c0.8-1.1,1.4-2.4,1.7-3.8l3-0.5c0.6-0.1,1.1-0.7,1.1-1.3v-1.8c0-0.6-0.5-1.2-1.1-1.3l-3-0.5
					c-0.3-1.1-0.7-2.2-1.3-3.2l1.7-2.4c0.4-0.5,0.3-1.2-0.1-1.7l-1.3-1.3c-0.5-0.5-1.2-0.5-1.7-0.1l-2.4,1.7c-1-0.6-2-1-3.2-1.3
					l-0.5-3c-0.1-0.6-0.7-1.1-1.3-1.1H243c-0.6,0-1.2,0.5-1.3,1.1l-0.5,3c-0.9,0.2-1.8,0.6-2.6,1l-2.4-1.9c-0.5-0.4-1.2-0.4-1.7,0
					l-1.3,1.2c-0.5,0.4-0.6,1.1-0.2,1.7l1.6,2.6c-0.8,1.1-1.3,2.3-1.6,3.7l-3,0.5c-0.6,0.1-1.1,0.7-1.1,1.3v1.8
					c0,0.6,0.5,1.2,1.1,1.3l3,0.5c0.3,1.1,0.7,2.2,1.3,3.1l-1.8,2.5c-0.4,0.5-0.3,1.2,0.1,1.7l1.3,1.3c0.5,0.5,1.2,0.5,1.7,0.1
					l2.5-1.8c1,0.6,2,1,3.2,1.3l0.5,3c0.1,0.6,0.7,1.1,1.3,1.1h1.8C245.4,155.3,245.9,154.8,246.1,154.2L246.1,154.2z M238.2,140.2
					c0-3.1,2.5-5.7,5.7-5.7c3.1,0,5.7,2.5,5.7,5.7c0,3.1-2.5,5.7-5.7,5.7C240.7,145.9,238.2,143.4,238.2,140.2L238.2,140.2z
					 M238.2,140.2"/>
			</g>
			<path class="st3" d="M205,196.1c-2.7,1.9-4.3,4.6-3.6,8.2l5.9-4.2l4.4,1.9l0.3,4.8l-5.9,4.2c2.6,1.2,6.2,1.2,9-0.7
				c3.4-2.4,4.5-6.8,3-10.4l13.6-13.7c2.6,1.1,5.8,0.9,8.3-0.9c2.7-1.9,4-5,3.7-8.1c0,0-0.5-4.7-4.6-6.8c-2.8-1.4-6.3-1.4-9.1,0.5
				c-3.2,2.2-4.5,6.2-3.4,9.8l-14.1,14.2C210.1,194.1,207.3,194.5,205,196.1L205,196.1z M231.9,174.6l4.8-1.5l3.2,3.2l-1.5,4.8
				l-4.8,1.5l-3.2-3.2L231.9,174.6z M231.9,174.6"/>
			<g class="st4">
				<path class="st2" d="M167.6,218.5l3,0.5c0.2,0.9,0.5,1.7,0.9,2.5l-1.9,2.4c-0.4,0.5-0.4,1.2,0,1.7l1.2,1.3
					c0.4,0.5,1.1,0.6,1.7,0.2l2.6-1.6c1.1,0.8,2.4,1.4,3.8,1.7l0.5,3c0.1,0.6,0.7,1.1,1.3,1.1h1.8c0.6,0,1.2-0.5,1.3-1.1l0.5-3
					c1.1-0.3,2.2-0.7,3.2-1.3l2.4,1.7c0.5,0.4,1.2,0.3,1.7-0.1l1.3-1.3c0.5-0.5,0.5-1.2,0.1-1.7l-1.7-2.4c0.6-1,1-2,1.3-3.2l3-0.5
					c0.6-0.1,1.1-0.7,1.1-1.3v-1.8c0-0.6-0.5-1.2-1.1-1.3l-3-0.5c-0.2-0.9-0.6-1.8-1-2.6l1.9-2.4c0.4-0.5,0.4-1.2,0-1.7l-1.2-1.3
					c-0.4-0.5-1.1-0.6-1.7-0.2l-2.6,1.6c-1.1-0.8-2.3-1.3-3.7-1.6l-0.5-3c-0.1-0.6-0.7-1.1-1.3-1.1h-1.8c-0.6,0-1.2,0.5-1.3,1.1
					l-0.5,3c-1.1,0.3-2.2,0.7-3.1,1.3l-2.5-1.8c-0.5-0.4-1.2-0.3-1.7,0.1l-1.3,1.3c-0.5,0.5-0.5,1.2-0.1,1.7l1.8,2.5
					c-0.6,1-1,2-1.3,3.2l-3,0.5c-0.6,0.1-1.1,0.7-1.1,1.3v1.8C166.5,217.8,166.9,218.4,167.6,218.5L167.6,218.5z M181.5,210.6
					c3.1,0,5.7,2.5,5.7,5.7c0,3.1-2.5,5.7-5.7,5.7c-3.1,0-5.7-2.5-5.7-5.7C175.9,213.2,178.4,210.6,181.5,210.6L181.5,210.6z
					 M181.5,210.6"/>
			</g>
			<path class="st3" d="M125.6,177.4c-1.9-2.7-4.6-4.3-8.2-3.6l4.2,5.9l-1.9,4.4l-4.8,0.3l-4.2-5.9c-1.2,2.6-1.2,6.2,0.7,9
				c2.4,3.4,6.8,4.5,10.4,3l13.7,13.6c-1.1,2.6-0.9,5.8,0.9,8.3c1.9,2.7,5,4,8.1,3.7c0,0,4.7-0.5,6.8-4.6c1.4-2.8,1.4-6.3-0.5-9.1
				c-2.2-3.2-6.2-4.5-9.8-3.4L126.9,185C127.7,182.5,127.3,179.7,125.6,177.4L125.6,177.4z M147.2,204.3l1.5,4.8l-3.2,3.2l-4.8-1.5
				l-1.5-4.8l3.2-3.2L147.2,204.3z M147.2,204.3"/>
			<g class="st4">
				<path class="st2" d="M103.3,140l-0.5,3c-0.9,0.2-1.7,0.5-2.5,0.9l-2.4-1.9c-0.5-0.4-1.2-0.4-1.7,0l-1.3,1.2
					c-0.5,0.4-0.6,1.1-0.2,1.7l1.6,2.6c-0.8,1.1-1.4,2.4-1.7,3.8l-3,0.5c-0.6,0.1-1.1,0.7-1.1,1.3v1.8c0,0.6,0.5,1.2,1.1,1.3l3,0.5
					c0.3,1.1,0.7,2.2,1.3,3.2l-1.7,2.4c-0.4,0.5-0.3,1.2,0.1,1.7l1.3,1.3c0.5,0.5,1.2,0.5,1.7,0.1l2.4-1.7c1,0.6,2,1,3.2,1.3l0.5,3
					c0.1,0.6,0.7,1.1,1.3,1.1h1.8c0.6,0,1.2-0.5,1.3-1.1l0.5-3c0.9-0.2,1.8-0.6,2.6-1l2.4,1.9c0.5,0.4,1.2,0.4,1.7,0l1.3-1.2
					c0.5-0.4,0.6-1.1,0.2-1.7l-1.6-2.6c0.8-1.1,1.3-2.3,1.6-3.7l3-0.5c0.6-0.1,1.1-0.7,1.1-1.3v-1.8c0-0.6-0.5-1.2-1.1-1.3l-3-0.5
					c-0.3-1.1-0.7-2.2-1.3-3.1l1.8-2.5c0.4-0.5,0.3-1.2-0.1-1.7l-1.3-1.3c-0.5-0.5-1.2-0.5-1.7-0.1l-2.5,1.8c-1-0.6-2-1-3.2-1.3
					l-0.5-3c-0.1-0.6-0.7-1.1-1.3-1.1h-1.8C103.9,138.9,103.4,139.4,103.3,140L103.3,140z M111.1,154c0,3.1-2.5,5.7-5.7,5.7
					c-3.1,0-5.7-2.5-5.7-5.7c0-3.1,2.5-5.7,5.7-5.7C108.6,148.3,111.1,150.8,111.1,154L111.1,154z M111.1,154"/>
			</g>
		</g>
		<g>
			<g>
				<path class="st23" d="M382.3,236.3c0,0,13.6,21.6-0.5,38.2c-14,16.6,22.1-9.5,22.1-9.5s6.6-30.9-9.1-31.5
					C379,232.9,382.3,236.3,382.3,236.3z"/>
				<g>
					<path class="st15" d="M384.5,291.9c-2.3,0-4.5-0.9-6.1-2.7c-3-3.4-2.7-8.6,0.7-11.6c13.9-12.4,20.9-23.4,19.1-30.2
						c-1.7-6.8-12.4-10.5-15.1-11.1c-4.4-1-7.2-5.4-6.1-9.8c1-4.4,5.4-7.2,9.8-6.1c2.3,0.5,22.9,5.8,27.3,23.1
						c3.5,13.7-4.4,29-24.1,46.5C388.4,291.2,386.5,291.9,384.5,291.9z"/>
				</g>
			</g>
			<ellipse transform="matrix(0.4399 -0.898 0.898 0.4399 -40.3798 503.5178)" class="st6" cx="383.5" cy="284.1" rx="9" ry="9"/>
		</g>
		<g>
			<g>
				<path class="st23" d="M326.9,236.3c0,0-13.6,21.6,0.5,38.2c14,16.6-22.1-9.5-22.1-9.5s-6.6-30.9,9.1-31.5
					C330.2,232.9,326.9,236.3,326.9,236.3z"/>
				<g>
					<path class="st15" d="M324.7,291.9c2.3,0,4.5-0.9,6.1-2.7c3-3.4,2.7-8.6-0.7-11.6c-13.9-12.4-20.9-23.4-19.1-30.2
						c1.7-6.8,12.4-10.5,15.1-11.1c4.4-1,7.2-5.4,6.1-9.8c-1-4.4-5.4-7.2-9.8-6.1c-2.3,0.5-22.9,5.8-27.3,23.1
						c-3.5,13.7,4.4,29,24.1,46.5C320.8,291.2,322.8,291.9,324.7,291.9z"/>
				</g>
			</g>
			<ellipse transform="matrix(0.898 -0.4399 0.4399 0.898 -91.7765 172.2719)" class="st6" cx="325.8" cy="284.1" rx="9" ry="9"/>
		</g>
		<g>
			<path class="st24" d="M333.6,283.8c-0.8,0-1.5-0.5-1.8-1.3L319.2,246c-0.3-1,0.2-2.1,1.2-2.4c1-0.3,2.1,0.2,2.4,1.2l12.7,36.5
				c0.3,1-0.2,2.1-1.2,2.4C334.1,283.8,333.8,283.8,333.6,283.8z"/>
		</g>
		<g>
			<path class="st25" d="M375.5,284.5c0.8,0,1.5-0.5,1.8-1.3l12.7-36.5c0.3-1-0.2-2.1-1.2-2.4c-1-0.3-2.1,0.2-2.4,1.2L373.7,282
				c-0.3,1,0.2,2.1,1.2,2.4C375.1,284.4,375.3,284.5,375.5,284.5z"/>
		</g>
		<path class="st1" d="M386.4,293.8h-63.7c-2.2,0-3.9-1.8-3.9-3.9v-2c0-2.2,1.8-3.9,3.9-3.9h63.7c2.2,0,3.9,1.8,3.9,3.9v2
			C390.3,292,388.5,293.8,386.4,293.8z"/>
		<path class="st26" d="M270,293.8H236c-2.2,0-3.9-1.8-3.9-3.9v-2c0-2.2,1.8-3.9,3.9-3.9H270c2.2,0,3.9,1.8,3.9,3.9v2
			C274,292,272.2,293.8,270,293.8z"/>
		<circle class="st27" cx="266.5" cy="289" r="2.4"/>
		<circle class="st28" cx="258.4" cy="289" r="2.4"/>
		<path class="st29" d="M266.5,289c0,0,20.9-2.6,19.7-31.8c-1.3-29.2,28.8-26.9,34.2-13.6"/>
		<path class="st30" d="M258.4,289c0,0,80.9,7.9,80.9-36.5c0-35.7,49.5-34.9,49.5-8.3"/>
		<path class="st1" d="M457.5,293.6c-0.2-2.5-1.8-4.4-3.7-4.4h-46.2c-1.9,0-3.5,1.9-3.7,4.4H457.5z"/>
		<path class="st31" d="M293.9,289.9c0.3,2.5,2.3,4.4,4.9,4.4h61.6c2.5,0,4.6-1.9,4.9-4.4H293.9z"/>
		<circle class="st19" cx="380" cy="289" r="2.4"/>
		<circle class="st21" cx="407.6" cy="155.4" r="11.2"/>
		<path class="st32" d="M296.7,162.2c0,0,30.3-66.2,99.6-13.9"/>
		<path class="st32" d="M296.7,162.2c0,0,30.3-59.5,99.6-12.5"/>
		<path class="st32" d="M296.7,162.2c0,0,30.3-53.4,99.6-11.2"/>
		<path class="st32" d="M296.7,162.2c0,0,30.3-46,99.6-9.6"/>
	</g>
</g>
</svg>
