<?xml version="1.0" encoding="utf-8"?>
<!-- Generator: Adobe Illustrator 21.0.0, SVG Export Plug-In . SVG Version: 6.00 Build 0)  -->
<svg version="1.1" xmlns="http://www.w3.org/2000/svg" xmlns:xlink="http://www.w3.org/1999/xlink" x="0px" y="0px"
	 viewBox="0 0 250 250" style="enable-background:new 0 0 250 250;" xml:space="preserve">
<style type="text/css">
	.st0{fill:#55ADD3;}
	.st1{fill:#E2E2E2;}
	.st2{fill:#FFFFFF;}
	.st3{opacity:0.2;fill:#FFFFFF;}
	.st4{opacity:0.2;}
	.st5{fill:#7F1416;}
	.st6{fill:#F7B78F;}
	.st7{fill:#623412;}
	.st8{fill:#A61E22;}
	.st9{fill:#E8AC86;}
	.st10{fill:#262626;}
	.st11{fill:#7C4739;}
	.st12{opacity:0.41;}
	.st13{fill:#0C0C0C;}
	.st14{fill:#475677;}
	.st15{fill:#3C4C66;}
	.st16{opacity:0.5;fill:#353535;}
	.st17{fill:#CCCCCC;}
	.st18{fill:none;stroke:#475677;stroke-width:5;stroke-linecap:round;stroke-miterlimit:10;}
	.st19{fill:#474747;}
	.st20{fill:#C29165;}
	.st21{fill:#CF9A6B;}
	.st22{fill:#AD815A;}
	.st23{opacity:0.5;fill:#383838;}
	.st24{fill:#EC6B56;}
	.st25{fill:#61BC6D;}
	.st26{fill:#3A3A3A;}
	.st27{fill:#BC3F31;}
	.st28{fill:#40A049;}
	.st29{fill:none;stroke:#BC3F31;stroke-miterlimit:10;}
	.st30{fill:none;stroke:#40A049;stroke-miterlimit:10;}
	.st31{fill:#A5A5A5;}
	.st32{fill:none;stroke:#263242;stroke-width:4;stroke-linecap:round;stroke-miterlimit:10;}
	.st33{clip-path:url(#SVGID_2_);fill:#2B8272;}
	.st34{fill:#4B9587;}
	.st35{fill:#359685;}
	.st36{fill:#53A697;}
	.st37{fill:#3DB39E;}
	.st38{fill:#81CEC0;}
	.st39{fill:#C18B63;}
	.st40{clip-path:url(#SVGID_4_);fill:#2B8272;}
	.st41{fill:#75706D;}
	.st42{fill:#41A85F;}
	.st43{opacity:0.1;}
	.st44{fill:#E7B28A;}
	.st45{opacity:0.2;fill:#5B5B5B;}
	.st46{fill:#4A4C47;}
	.st47{fill:#333530;}
	.st48{fill:url(#);}
	.st49{fill:#FAA026;}
	.st50{fill:#BC7622;}
	.st51{clip-path:url(#SVGID_10_);}
	.st52{fill:#C0BFC4;}
	.st53{clip-path:url(#SVGID_12_);}
	.st54{fill:#A6A5AB;}
	.st55{fill:none;stroke:url(#);stroke-width:8;stroke-miterlimit:10;}
	.st56{fill:none;stroke:url(#);stroke-width:7;stroke-miterlimit:10;}
	.st57{fill:none;stroke:url(#);stroke-width:6;stroke-miterlimit:10;}
	.st58{fill:#F8DB65;}
	.st59{fill:#FAC51F;}
	.st60{fill:#2A69B0;}
	.st61{fill:#D14840;}
	.st62{clip-path:url(#SVGID_18_);}
	.st63{fill:none;}
	.st64{fill:#515056;}
	.st65{clip-path:url(#SVGID_20_);}
	.st66{fill:#38373C;}
	.st67{clip-path:url(#SVGID_22_);}
	.st68{fill:#CCE1F2;}
	.st69{clip-path:url(#SVGID_24_);}
	.st70{fill:#AFD3EE;}
	.st71{clip-path:url(#SVGID_26_);}
	.st72{fill:#83828A;}
	.st73{clip-path:url(#SVGID_28_);}
	.st74{fill:#1CBB9B;}
	.st75{fill:#098C6D;}
	.st76{fill:none;stroke:url(#);stroke-width:7.769;stroke-linecap:round;stroke-miterlimit:10;}
	.st77{fill:#9265B8;}
	.st78{fill:#553984;}
	.st79{fill:none;stroke:#FFFFFF;stroke-width:3;stroke-linecap:round;stroke-miterlimit:10;}
	.st80{fill:#28812F;}
	.st81{fill:#ECD361;}
	.st82{fill:#38454F;}
	.st83{fill:#283238;}
	.st84{fill:#5E5E60;}
	.st85{fill:#546A79;}
	.st86{fill:#CBD4D8;}
	.st87{fill:#FFD85C;}
	.st88{fill:#FF503D;}
	.st89{fill:#8EC766;}
	.st90{opacity:0.2;clip-path:url(#SVGID_32_);fill:#FFFFFF;}
	.st91{fill:#FEA621;}
	.st92{fill:#5065A1;}
	.st93{fill:#E6E7E8;}
	.st94{fill:#1ABC9C;}
	.st95{fill:#9B59B6;}
	.st96{opacity:0.3;fill:#606060;}
	.st97{fill:#EF717A;}
	.st98{fill:#3498DB;}
</style>
<g id="BACKGROUND">
</g>
<g id="DESIGNED_BY_FREEPIK">
</g>
<g id="OBJECTS">
	<g>
		
			<ellipse transform="matrix(0.7071 -0.7071 0.7071 0.7071 -49.6116 133.4383)" class="st97" cx="136.3" cy="126.6" rx="78.8" ry="78.8"/>
		<g>
			<path class="st97" d="M116.2,229.9c-28-5.4-53-22.2-68.6-46.5c-1.1-1.7-0.6-3.9,1.1-5c1.7-1.1,3.9-0.6,5,1.1
				c17,26.5,45.9,43.3,77.3,44.9c53.9,2.8,100-38.7,102.8-92.6c1.4-25.9-7.6-50.9-25.2-70.4c-17.6-19.5-41.5-31-67.4-32.4
				c-4.9-0.3-9.8-0.1-14.7,0.3c-2,0.2-3.8-1.3-4-3.3c-0.2-2,1.3-3.8,3.3-4c5.2-0.5,10.6-0.6,15.8-0.4c27.9,1.5,53.6,13.8,72.5,34.8
				c18.9,21,28.5,47.8,27,75.7c-1.5,27.9-13.8,53.6-34.8,72.5c-21,18.9-47.8,28.5-75.7,27C125.8,231.4,121,230.8,116.2,229.9z"/>
		</g>
		<g>
			<circle class="st98" cx="76.3" cy="59.4" r="41.2"/>
			<path class="st98" d="M76.3,164H9.7c0-36.5,30-66.6,66.6-66.6s66.6,30,66.6,66.6H76.3z"/>
		</g>
		<path class="st96" d="M75.2,18.2L75.2,18.2C52.5,18.2,34,36.7,34,59.4c0,18.4,12,33.9,28.7,39.2c-30.6,5.9-54,33.1-54,65.3h66.6
			V18.2z"/>
		<g>
			<path class="st2" d="M185.8,123c-0.2-1.4-1.7-2.4-3.1-2.4c-4.5,0-8.4-2.6-10.1-6.7c-1.7-4.2-0.6-9,2.7-12c1-1,1.2-2.6,0.3-3.7
				c-2.3-2.9-4.9-5.5-7.7-7.8c-1.1-0.9-2.7-0.8-3.7,0.3c-2.9,3.2-8.1,4.4-12.1,2.7c-4.2-1.8-6.8-6-6.6-10.6c0.1-1.4-1-2.7-2.4-2.8
				c-3.6-0.4-7.3-0.4-11,0c-1.4,0.2-2.5,1.4-2.4,2.8c0.2,4.5-2.5,8.7-6.7,10.4c-4,1.6-9.2,0.4-12.1-2.7c-1-1.1-2.6-1.2-3.7-0.3
				c-2.9,2.3-5.6,4.9-7.9,7.8c-0.9,1.1-0.8,2.7,0.3,3.7c3.4,3.1,4.5,7.9,2.7,12.1c-1.7,4-5.8,6.6-10.6,6.6c-1.5,0-2.6,1-2.8,2.4
				c-0.4,3.7-0.4,7.4,0,11.1c0.2,1.4,1.8,2.4,3.2,2.4c4.2-0.1,8.3,2.5,10,6.7c1.7,4.1,0.6,9-2.7,12c-1,1-1.2,2.6-0.3,3.7
				c2.3,2.9,4.9,5.5,7.7,7.8c1.1,0.9,2.7,0.8,3.7-0.3c2.9-3.2,8.1-4.4,12.1-2.7c4.2,1.8,6.8,6,6.6,10.6c-0.1,1.4,1,2.7,2.4,2.8
				c1.9,0.2,3.7,0.3,5.6,0.3c1.8,0,3.6-0.1,5.3-0.3c1.4-0.2,2.5-1.4,2.4-2.8c-0.2-4.5,2.5-8.7,6.7-10.4c4-1.6,9.2-0.4,12.1,2.7
				c1,1,2.6,1.2,3.7,0.3c2.9-2.3,5.6-4.9,7.9-7.8c0.9-1.1,0.8-2.7-0.3-3.7c-3.4-3.1-4.5-7.9-2.7-12.1c1.7-3.9,5.7-6.6,10-6.6l0.6,0
				c1.4,0.1,2.7-1,2.8-2.4C186.2,130.4,186.2,126.7,185.8,123L185.8,123z M137.4,156.5c-15.5,0-28.1-12.6-28.1-28.1
				c0-15.5,12.6-28.1,28.1-28.1s28.1,12.6,28.1,28.1c0,5.3-1.5,10.2-4,14.4l-12.3-12.3c0.9-2.1,1.4-4.4,1.4-6.7
				c0-4.6-1.8-8.9-5-12.2c-3.2-3.2-7.6-5-12.2-5c-1.5,0-3.1,0.2-4.5,0.6c-0.6,0.2-1.2,0.7-1.3,1.4c-0.2,0.7,0,1.3,0.5,1.9
				c0,0,6.1,6.1,8.1,8.1c0.2,0.2,0.2,0.7,0.2,0.9l0,0.1c-0.2,2.2-0.6,4.9-0.9,5.9c0,0-0.1,0.1-0.1,0.1c0,0-0.1,0.1-0.1,0.1
				c-1,0.3-3.8,0.7-6,0.9l0,0l-0.1,0c0,0-0.1,0-0.1,0c-0.2,0-0.6-0.1-0.9-0.4c-2.1-2.1-7.9-7.9-7.9-7.9c-0.5-0.5-1.1-0.6-1.4-0.6
				c-0.8,0-1.6,0.6-1.8,1.5c-1.6,5.9,0.1,12.3,4.4,16.7c3.3,3.3,7.6,5,12.2,5c2.3,0,4.6-0.5,6.7-1.4l12.4,12.4
				C148.2,154.9,143,156.5,137.4,156.5L137.4,156.5z M137.4,156.5"/>
		</g>
	</g>
</g>
</svg>
